<?xml version="1.0" encoding="UTF-8"?>
<svg xmlns="http://www.w3.org/2000/svg" xmlns:xlink="http://www.w3.org/1999/xlink" width="525pt" height="324pt" viewBox="0 0 525 324" version="1.1">
<defs>
<g>
<symbol overflow="visible" id="glyph0-0">
<path style="stroke:none;" d="M 1.101563 0 L 1.101563 -5.5 L 5.5 -5.5 L 5.5 0 Z M 1.238281 -0.136719 L 5.363281 -0.136719 L 5.363281 -5.363281 L 1.238281 -5.363281 Z M 1.238281 -0.136719 "/>
</symbol>
<symbol overflow="visible" id="glyph0-1">
<path style="stroke:none;" d="M 0.367188 -3.105469 C 0.363281 -3.847656 0.4375 -4.445313 0.59375 -4.902344 C 0.742188 -5.355469 0.972656 -5.707031 1.277344 -5.953125 C 1.578125 -6.199219 1.957031 -6.320313 2.417969 -6.324219 C 2.753906 -6.320313 3.050781 -6.253906 3.308594 -6.121094 C 3.5625 -5.984375 3.773438 -5.789063 3.9375 -5.53125 C 4.101563 -5.273438 4.230469 -4.960938 4.328125 -4.59375 C 4.421875 -4.226563 4.46875 -3.730469 4.472656 -3.105469 C 4.46875 -2.367188 4.394531 -1.769531 4.242188 -1.316406 C 4.089844 -0.859375 3.863281 -0.507813 3.5625 -0.261719 C 3.257813 -0.015625 2.875 0.105469 2.417969 0.109375 C 1.808594 0.105469 1.332031 -0.109375 0.988281 -0.546875 C 0.570313 -1.066406 0.363281 -1.921875 0.367188 -3.105469 Z M 1.160156 -3.105469 C 1.160156 -2.070313 1.28125 -1.378906 1.523438 -1.039063 C 1.765625 -0.695313 2.0625 -0.527344 2.417969 -0.527344 C 2.773438 -0.527344 3.074219 -0.699219 3.316406 -1.042969 C 3.558594 -1.386719 3.679688 -2.074219 3.679688 -3.105469 C 3.679688 -4.144531 3.558594 -4.832031 3.316406 -5.171875 C 3.074219 -5.511719 2.769531 -5.683594 2.410156 -5.683594 C 2.050781 -5.683594 1.769531 -5.53125 1.558594 -5.234375 C 1.292969 -4.84375 1.160156 -4.136719 1.160156 -3.105469 Z M 1.160156 -3.105469 "/>
</symbol>
<symbol overflow="visible" id="glyph0-2">
<path style="stroke:none;" d="M 0.800781 0 L 0.800781 -0.882813 L 1.679688 -0.882813 L 1.679688 0 Z M 0.800781 0 "/>
</symbol>
<symbol overflow="visible" id="glyph0-3">
<path style="stroke:none;" d="M 4.429688 -0.742188 L 4.429688 0 L 0.265625 0 C 0.257813 -0.1875 0.289063 -0.367188 0.355469 -0.539063 C 0.460938 -0.820313 0.628906 -1.097656 0.863281 -1.375 C 1.09375 -1.648438 1.433594 -1.964844 1.878906 -2.328125 C 2.5625 -2.886719 3.023438 -3.332031 3.265625 -3.664063 C 3.5 -3.988281 3.621094 -4.300781 3.625 -4.59375 C 3.621094 -4.898438 3.511719 -5.15625 3.296875 -5.367188 C 3.074219 -5.578125 2.789063 -5.683594 2.441406 -5.683594 C 2.066406 -5.683594 1.769531 -5.570313 1.546875 -5.347656 C 1.320313 -5.125 1.207031 -4.816406 1.207031 -4.421875 L 0.414063 -4.503906 C 0.464844 -5.09375 0.667969 -5.542969 1.027344 -5.855469 C 1.378906 -6.164063 1.855469 -6.320313 2.457031 -6.324219 C 3.058594 -6.320313 3.539063 -6.152344 3.890625 -5.820313 C 4.242188 -5.484375 4.417969 -5.070313 4.421875 -4.578125 C 4.417969 -4.320313 4.367188 -4.074219 4.265625 -3.832031 C 4.164063 -3.589844 3.992188 -3.332031 3.753906 -3.0625 C 3.511719 -2.792969 3.113281 -2.425781 2.5625 -1.957031 C 2.09375 -1.566406 1.796875 -1.300781 1.664063 -1.160156 C 1.53125 -1.019531 1.421875 -0.878906 1.339844 -0.742188 Z M 4.429688 -0.742188 "/>
</symbol>
<symbol overflow="visible" id="glyph0-4">
<path style="stroke:none;" d="M 0.367188 -1.648438 L 1.175781 -1.71875 C 1.234375 -1.320313 1.375 -1.023438 1.59375 -0.824219 C 1.8125 -0.625 2.078125 -0.527344 2.390625 -0.527344 C 2.761719 -0.527344 3.074219 -0.667969 3.335938 -0.949219 C 3.589844 -1.230469 3.71875 -1.601563 3.722656 -2.066406 C 3.71875 -2.503906 3.59375 -2.851563 3.347656 -3.109375 C 3.097656 -3.363281 2.773438 -3.492188 2.375 -3.492188 C 2.125 -3.492188 1.902344 -3.433594 1.703125 -3.320313 C 1.5 -3.207031 1.34375 -3.0625 1.230469 -2.882813 L 0.503906 -2.976563 L 1.113281 -6.214844 L 4.246094 -6.214844 L 4.246094 -5.472656 L 1.730469 -5.472656 L 1.390625 -3.78125 C 1.765625 -4.039063 2.164063 -4.171875 2.582031 -4.175781 C 3.128906 -4.171875 3.59375 -3.980469 3.972656 -3.605469 C 4.351563 -3.222656 4.539063 -2.734375 4.542969 -2.136719 C 4.539063 -1.5625 4.375 -1.070313 4.042969 -0.65625 C 3.636719 -0.148438 3.085938 0.105469 2.390625 0.109375 C 1.816406 0.105469 1.347656 -0.0507813 0.984375 -0.371094 C 0.621094 -0.691406 0.414063 -1.117188 0.367188 -1.648438 Z M 0.367188 -1.648438 "/>
</symbol>
<symbol overflow="visible" id="glyph0-5">
<path style="stroke:none;" d="M 0.417969 -5.472656 L 0.417969 -6.21875 L 4.496094 -6.21875 L 4.496094 -5.617188 C 4.089844 -5.1875 3.691406 -4.621094 3.300781 -3.914063 C 2.902344 -3.203125 2.601563 -2.472656 2.390625 -1.730469 C 2.234375 -1.199219 2.132813 -0.625 2.09375 0 L 1.296875 0 C 1.304688 -0.492188 1.402344 -1.089844 1.589844 -1.792969 C 1.773438 -2.496094 2.042969 -3.171875 2.390625 -3.824219 C 2.738281 -4.476563 3.109375 -5.027344 3.503906 -5.472656 Z M 0.417969 -5.472656 "/>
</symbol>
<symbol overflow="visible" id="glyph0-6">
<path style="stroke:none;" d="M 3.277344 0 L 2.503906 0 L 2.503906 -4.929688 C 2.316406 -4.75 2.074219 -4.574219 1.773438 -4.394531 C 1.46875 -4.214844 1.195313 -4.082031 0.957031 -3.996094 L 0.957031 -4.742188 C 1.386719 -4.941406 1.765625 -5.1875 2.089844 -5.480469 C 2.414063 -5.769531 2.644531 -6.050781 2.78125 -6.324219 L 3.277344 -6.324219 Z M 3.277344 0 "/>
</symbol>
<symbol overflow="visible" id="glyph0-7">
<path style="stroke:none;" d="M 0.371094 -1.664063 L 1.144531 -1.765625 C 1.230469 -1.324219 1.382813 -1.007813 1.597656 -0.816406 C 1.808594 -0.621094 2.066406 -0.527344 2.375 -0.527344 C 2.734375 -0.527344 3.042969 -0.652344 3.296875 -0.90625 C 3.546875 -1.15625 3.671875 -1.46875 3.675781 -1.84375 C 3.671875 -2.195313 3.554688 -2.488281 3.324219 -2.71875 C 3.089844 -2.949219 2.796875 -3.0625 2.441406 -3.066406 C 2.292969 -3.0625 2.109375 -3.035156 1.894531 -2.980469 L 1.980469 -3.660156 C 2.03125 -3.652344 2.070313 -3.648438 2.105469 -3.652344 C 2.433594 -3.648438 2.730469 -3.734375 2.996094 -3.910156 C 3.253906 -4.078125 3.386719 -4.34375 3.390625 -4.703125 C 3.386719 -4.984375 3.289063 -5.21875 3.101563 -5.40625 C 2.90625 -5.589844 2.660156 -5.683594 2.359375 -5.6875 C 2.054688 -5.683594 1.804688 -5.589844 1.605469 -5.402344 C 1.402344 -5.214844 1.273438 -4.929688 1.21875 -4.554688 L 0.445313 -4.691406 C 0.539063 -5.207031 0.753906 -5.609375 1.089844 -5.894531 C 1.425781 -6.179688 1.84375 -6.320313 2.34375 -6.324219 C 2.6875 -6.320313 3.003906 -6.246094 3.292969 -6.101563 C 3.582031 -5.953125 3.800781 -5.753906 3.953125 -5.5 C 4.105469 -5.242188 4.183594 -4.972656 4.183594 -4.6875 C 4.183594 -4.414063 4.109375 -4.164063 3.964844 -3.945313 C 3.816406 -3.71875 3.601563 -3.542969 3.316406 -3.410156 C 3.6875 -3.324219 3.976563 -3.144531 4.183594 -2.875 C 4.390625 -2.601563 4.492188 -2.261719 4.496094 -1.859375 C 4.492188 -1.304688 4.292969 -0.839844 3.894531 -0.460938 C 3.492188 -0.078125 2.984375 0.109375 2.371094 0.113281 C 1.816406 0.109375 1.355469 -0.0507813 0.992188 -0.378906 C 0.625 -0.707031 0.417969 -1.136719 0.371094 -1.664063 Z M 0.371094 -1.664063 "/>
</symbol>
<symbol overflow="visible" id="glyph0-8">
<path style="stroke:none;" d="M 2.84375 0 L 2.84375 -1.507813 L 0.113281 -1.507813 L 0.113281 -2.21875 L 2.988281 -6.300781 L 3.617188 -6.300781 L 3.617188 -2.21875 L 4.46875 -2.21875 L 4.46875 -1.507813 L 3.617188 -1.507813 L 3.617188 0 Z M 2.84375 -2.21875 L 2.84375 -5.058594 L 0.871094 -2.21875 Z M 2.84375 -2.21875 "/>
</symbol>
<symbol overflow="visible" id="glyph0-9">
<path style="stroke:none;" d="M 0.394531 -2.023438 L 1.179688 -2.09375 C 1.214844 -1.773438 1.304688 -1.515625 1.441406 -1.316406 C 1.574219 -1.113281 1.785156 -0.949219 2.074219 -0.828125 C 2.359375 -0.699219 2.679688 -0.636719 3.042969 -0.640625 C 3.355469 -0.636719 3.636719 -0.683594 3.882813 -0.78125 C 4.125 -0.875 4.304688 -1.007813 4.425781 -1.171875 C 4.542969 -1.335938 4.605469 -1.515625 4.605469 -1.710938 C 4.605469 -1.90625 4.546875 -2.078125 4.433594 -2.226563 C 4.316406 -2.375 4.128906 -2.5 3.867188 -2.601563 C 3.695313 -2.664063 3.320313 -2.765625 2.746094 -2.90625 C 2.164063 -3.046875 1.757813 -3.175781 1.53125 -3.300781 C 1.226563 -3.453125 1.003906 -3.648438 0.855469 -3.886719 C 0.707031 -4.117188 0.632813 -4.378906 0.636719 -4.671875 C 0.632813 -4.984375 0.722656 -5.28125 0.90625 -5.5625 C 1.082031 -5.835938 1.34375 -6.046875 1.695313 -6.191406 C 2.039063 -6.332031 2.425781 -6.402344 2.851563 -6.40625 C 3.316406 -6.402344 3.730469 -6.328125 4.089844 -6.179688 C 4.445313 -6.027344 4.71875 -5.804688 4.910156 -5.515625 C 5.101563 -5.21875 5.203125 -4.890625 5.21875 -4.523438 L 4.421875 -4.464844 C 4.375 -4.863281 4.230469 -5.164063 3.984375 -5.367188 C 3.734375 -5.570313 3.367188 -5.671875 2.886719 -5.671875 C 2.382813 -5.671875 2.015625 -5.578125 1.785156 -5.394531 C 1.554688 -5.207031 1.441406 -4.984375 1.441406 -4.726563 C 1.441406 -4.496094 1.519531 -4.308594 1.683594 -4.167969 C 1.839844 -4.019531 2.261719 -3.871094 2.941406 -3.71875 C 3.617188 -3.5625 4.082031 -3.429688 4.335938 -3.316406 C 4.703125 -3.144531 4.972656 -2.929688 5.148438 -2.671875 C 5.320313 -2.414063 5.40625 -2.113281 5.410156 -1.777344 C 5.40625 -1.441406 5.3125 -1.128906 5.121094 -0.832031 C 4.929688 -0.535156 4.652344 -0.300781 4.292969 -0.136719 C 3.929688 0.0273438 3.527344 0.105469 3.082031 0.109375 C 2.511719 0.105469 2.03125 0.0234375 1.648438 -0.140625 C 1.257813 -0.304688 0.957031 -0.554688 0.742188 -0.890625 C 0.519531 -1.222656 0.402344 -1.597656 0.394531 -2.023438 Z M 0.394531 -2.023438 "/>
</symbol>
<symbol overflow="visible" id="glyph0-10">
<path style="stroke:none;" d="M 3.558594 -1.671875 L 4.320313 -1.574219 C 4.234375 -1.046875 4.023438 -0.636719 3.679688 -0.339844 C 3.335938 -0.046875 2.914063 0.0976563 2.417969 0.101563 C 1.792969 0.0976563 1.292969 -0.101563 0.914063 -0.507813 C 0.53125 -0.914063 0.339844 -1.5 0.34375 -2.265625 C 0.339844 -2.753906 0.421875 -3.183594 0.585938 -3.558594 C 0.75 -3.925781 0.996094 -4.203125 1.332031 -4.390625 C 1.664063 -4.570313 2.027344 -4.664063 2.421875 -4.667969 C 2.914063 -4.664063 3.320313 -4.539063 3.640625 -4.289063 C 3.953125 -4.039063 4.15625 -3.683594 4.246094 -3.222656 L 3.492188 -3.105469 C 3.421875 -3.410156 3.292969 -3.640625 3.113281 -3.796875 C 2.925781 -3.953125 2.707031 -4.03125 2.453125 -4.03125 C 2.0625 -4.03125 1.746094 -3.890625 1.503906 -3.609375 C 1.257813 -3.328125 1.136719 -2.886719 1.140625 -2.285156 C 1.136719 -1.671875 1.253906 -1.226563 1.492188 -0.949219 C 1.722656 -0.667969 2.027344 -0.527344 2.410156 -0.53125 C 2.710938 -0.527344 2.964844 -0.621094 3.171875 -0.808594 C 3.371094 -0.996094 3.5 -1.28125 3.558594 -1.671875 Z M 3.558594 -1.671875 "/>
</symbol>
<symbol overflow="visible" id="glyph0-11">
<path style="stroke:none;" d="M 0.578125 0 L 0.578125 -6.300781 L 1.351563 -6.300781 L 1.351563 -4.039063 C 1.710938 -4.453125 2.167969 -4.664063 2.71875 -4.667969 C 3.054688 -4.664063 3.347656 -4.597656 3.601563 -4.464844 C 3.847656 -4.332031 4.027344 -4.148438 4.136719 -3.914063 C 4.242188 -3.679688 4.292969 -3.335938 4.296875 -2.890625 L 4.296875 0 L 3.523438 0 L 3.523438 -2.890625 C 3.519531 -3.273438 3.4375 -3.554688 3.269531 -3.734375 C 3.101563 -3.90625 2.863281 -3.996094 2.5625 -4 C 2.328125 -3.996094 2.113281 -3.9375 1.914063 -3.820313 C 1.710938 -3.703125 1.566406 -3.542969 1.480469 -3.339844 C 1.390625 -3.136719 1.347656 -2.855469 1.351563 -2.496094 L 1.351563 0 Z M 0.578125 0 "/>
</symbol>
<symbol overflow="visible" id="glyph0-12">
<path style="stroke:none;" d="M 3.703125 -1.46875 L 4.503906 -1.371094 C 4.375 -0.902344 4.140625 -0.539063 3.800781 -0.285156 C 3.460938 -0.0273438 3.027344 0.0976563 2.496094 0.101563 C 1.828125 0.0976563 1.296875 -0.101563 0.90625 -0.511719 C 0.511719 -0.917969 0.316406 -1.496094 0.320313 -2.242188 C 0.316406 -3.007813 0.515625 -3.605469 0.914063 -4.03125 C 1.308594 -4.453125 1.820313 -4.664063 2.453125 -4.667969 C 3.058594 -4.664063 3.554688 -4.457031 3.945313 -4.042969 C 4.328125 -3.628906 4.523438 -3.042969 4.527344 -2.289063 C 4.523438 -2.242188 4.523438 -2.175781 4.523438 -2.085938 L 1.121094 -2.085938 C 1.144531 -1.582031 1.289063 -1.195313 1.546875 -0.929688 C 1.800781 -0.660156 2.117188 -0.527344 2.5 -0.53125 C 2.78125 -0.527344 3.023438 -0.601563 3.226563 -0.753906 C 3.425781 -0.902344 3.585938 -1.140625 3.703125 -1.46875 Z M 1.164063 -2.71875 L 3.710938 -2.71875 C 3.671875 -3.101563 3.578125 -3.386719 3.421875 -3.582031 C 3.171875 -3.878906 2.851563 -4.03125 2.460938 -4.03125 C 2.105469 -4.03125 1.804688 -3.910156 1.566406 -3.671875 C 1.320313 -3.433594 1.1875 -3.117188 1.164063 -2.71875 Z M 1.164063 -2.71875 "/>
</symbol>
<symbol overflow="visible" id="glyph0-13">
<path style="stroke:none;" d="M 0.578125 0 L 0.578125 -4.5625 L 1.273438 -4.5625 L 1.273438 -3.921875 C 1.414063 -4.140625 1.605469 -4.320313 1.84375 -4.460938 C 2.078125 -4.59375 2.347656 -4.664063 2.65625 -4.667969 C 2.992188 -4.664063 3.269531 -4.59375 3.488281 -4.457031 C 3.699219 -4.3125 3.851563 -4.117188 3.945313 -3.867188 C 4.300781 -4.398438 4.773438 -4.664063 5.355469 -4.667969 C 5.804688 -4.664063 6.148438 -4.539063 6.394531 -4.289063 C 6.636719 -4.039063 6.761719 -3.652344 6.761719 -3.132813 L 6.761719 0 L 5.996094 0 L 5.996094 -2.875 C 5.992188 -3.183594 5.96875 -3.40625 5.917969 -3.542969 C 5.867188 -3.675781 5.773438 -3.785156 5.644531 -3.871094 C 5.511719 -3.953125 5.359375 -3.996094 5.183594 -3.996094 C 4.859375 -3.996094 4.59375 -3.886719 4.382813 -3.675781 C 4.171875 -3.457031 4.066406 -3.117188 4.066406 -2.652344 L 4.066406 0 L 3.292969 0 L 3.292969 -2.964844 C 3.292969 -3.308594 3.226563 -3.566406 3.101563 -3.738281 C 2.972656 -3.910156 2.769531 -3.996094 2.484375 -3.996094 C 2.265625 -3.996094 2.0625 -3.9375 1.878906 -3.824219 C 1.691406 -3.707031 1.558594 -3.539063 1.476563 -3.320313 C 1.390625 -3.097656 1.347656 -2.78125 1.351563 -2.367188 L 1.351563 0 Z M 0.578125 0 "/>
</symbol>
<symbol overflow="visible" id="glyph0-14">
<path style="stroke:none;" d=""/>
</symbol>
<symbol overflow="visible" id="glyph0-15">
<path style="stroke:none;" d="M 2.058594 1.851563 C 1.628906 1.3125 1.269531 0.683594 0.972656 -0.0390625 C 0.675781 -0.757813 0.527344 -1.503906 0.53125 -2.28125 C 0.527344 -2.960938 0.636719 -3.617188 0.863281 -4.242188 C 1.117188 -4.964844 1.515625 -5.683594 2.058594 -6.40625 L 2.613281 -6.40625 C 2.265625 -5.804688 2.035156 -5.378906 1.925781 -5.128906 C 1.75 -4.730469 1.613281 -4.320313 1.511719 -3.894531 C 1.386719 -3.355469 1.324219 -2.816406 1.328125 -2.277344 C 1.324219 -0.898438 1.753906 0.476563 2.613281 1.851563 Z M 2.058594 1.851563 "/>
</symbol>
<symbol overflow="visible" id="glyph0-16">
<path style="stroke:none;" d="M 4.8125 -6.300781 L 5.644531 -6.300781 L 5.644531 -2.660156 C 5.640625 -2.027344 5.570313 -1.523438 5.429688 -1.152344 C 5.285156 -0.777344 5.027344 -0.472656 4.652344 -0.242188 C 4.277344 -0.0078125 3.785156 0.105469 3.183594 0.109375 C 2.589844 0.105469 2.109375 0.0078125 1.734375 -0.195313 C 1.359375 -0.398438 1.089844 -0.695313 0.929688 -1.082031 C 0.769531 -1.464844 0.691406 -1.992188 0.691406 -2.660156 L 0.691406 -6.300781 L 1.527344 -6.300781 L 1.527344 -2.664063 C 1.523438 -2.113281 1.574219 -1.710938 1.679688 -1.453125 C 1.777344 -1.195313 1.953125 -0.996094 2.203125 -0.855469 C 2.449219 -0.714844 2.75 -0.644531 3.109375 -0.644531 C 3.722656 -0.644531 4.160156 -0.78125 4.421875 -1.058594 C 4.679688 -1.335938 4.808594 -1.871094 4.8125 -2.664063 Z M 4.8125 -6.300781 "/>
</symbol>
<symbol overflow="visible" id="glyph0-17">
<path style="stroke:none;" d="M 0.644531 0 L 0.644531 -6.300781 L 1.476563 -6.300781 L 1.476563 -0.742188 L 4.582031 -0.742188 L 4.582031 0 Z M 0.644531 0 "/>
</symbol>
<symbol overflow="visible" id="glyph0-18">
<path style="stroke:none;" d="M 4.648438 -3.703125 L 0.488281 -3.703125 L 0.488281 -4.425781 L 4.648438 -4.425781 Z M 4.648438 -1.792969 L 0.488281 -1.792969 L 0.488281 -2.515625 L 4.648438 -2.515625 Z M 4.648438 -1.792969 "/>
</symbol>
<symbol overflow="visible" id="glyph0-19">
<path style="stroke:none;" d="M 1.085938 1.851563 L 0.53125 1.851563 C 1.386719 0.476563 1.816406 -0.898438 1.816406 -2.277344 C 1.816406 -2.8125 1.753906 -3.347656 1.632813 -3.878906 C 1.535156 -4.308594 1.398438 -4.71875 1.226563 -5.117188 C 1.109375 -5.371094 0.878906 -5.800781 0.53125 -6.40625 L 1.085938 -6.40625 C 1.621094 -5.683594 2.019531 -4.964844 2.28125 -4.242188 C 2.5 -3.617188 2.613281 -2.960938 2.613281 -2.28125 C 2.613281 -1.503906 2.464844 -0.757813 2.167969 -0.0390625 C 1.871094 0.683594 1.507813 1.3125 1.085938 1.851563 Z M 1.085938 1.851563 "/>
</symbol>
<symbol overflow="visible" id="glyph1-0">
<path style="stroke:none;" d="M 1.375 0 L 1.375 -6.875 L 6.875 -6.875 L 6.875 0 Z M 1.546875 -0.171875 L 6.703125 -0.171875 L 6.703125 -6.703125 L 1.546875 -6.703125 Z M 1.546875 -0.171875 "/>
</symbol>
<symbol overflow="visible" id="glyph1-1">
<path style="stroke:none;" d="M 4.628906 -1.835938 L 5.628906 -1.714844 C 5.46875 -1.125 5.175781 -0.671875 4.75 -0.351563 C 4.324219 -0.03125 3.78125 0.128906 3.121094 0.128906 C 2.28125 0.128906 1.617188 -0.125 1.132813 -0.640625 C 0.640625 -1.152344 0.398438 -1.875 0.402344 -2.804688 C 0.398438 -3.761719 0.644531 -4.503906 1.144531 -5.035156 C 1.636719 -5.5625 2.277344 -5.828125 3.066406 -5.832031 C 3.824219 -5.828125 4.449219 -5.570313 4.933594 -5.050781 C 5.417969 -4.53125 5.660156 -3.800781 5.660156 -2.863281 C 5.660156 -2.804688 5.65625 -2.71875 5.65625 -2.605469 L 1.402344 -2.605469 C 1.433594 -1.976563 1.613281 -1.496094 1.933594 -1.164063 C 2.25 -0.828125 2.644531 -0.660156 3.125 -0.664063 C 3.476563 -0.660156 3.78125 -0.753906 4.03125 -0.945313 C 4.28125 -1.128906 4.480469 -1.425781 4.628906 -1.835938 Z M 1.457031 -3.398438 L 4.640625 -3.398438 C 4.597656 -3.878906 4.472656 -4.238281 4.273438 -4.480469 C 3.960938 -4.851563 3.5625 -5.039063 3.078125 -5.039063 C 2.628906 -5.039063 2.257813 -4.890625 1.957031 -4.59375 C 1.652344 -4.296875 1.484375 -3.898438 1.457031 -3.398438 Z M 1.457031 -3.398438 "/>
</symbol>
<symbol overflow="visible" id="glyph1-2">
<path style="stroke:none;" d="M 0.0820313 0 L 2.164063 -2.964844 L 0.234375 -5.703125 L 1.445313 -5.703125 L 2.320313 -4.367188 C 2.484375 -4.109375 2.617188 -3.898438 2.71875 -3.726563 C 2.875 -3.960938 3.019531 -4.167969 3.152344 -4.355469 L 4.113281 -5.703125 L 5.269531 -5.703125 L 3.296875 -3.019531 L 5.417969 0 L 4.234375 0 L 3.0625 -1.773438 L 2.75 -2.25 L 1.25 0 Z M 0.0820313 0 "/>
</symbol>
<symbol overflow="visible" id="glyph1-3">
<path style="stroke:none;" d="M 0.726563 2.1875 L 0.726563 -5.703125 L 1.605469 -5.703125 L 1.605469 -4.960938 C 1.8125 -5.25 2.046875 -5.46875 2.308594 -5.613281 C 2.570313 -5.757813 2.886719 -5.828125 3.261719 -5.832031 C 3.746094 -5.828125 4.175781 -5.703125 4.550781 -5.457031 C 4.921875 -5.203125 5.203125 -4.851563 5.390625 -4.394531 C 5.578125 -3.9375 5.671875 -3.4375 5.675781 -2.894531 C 5.671875 -2.308594 5.566406 -1.78125 5.359375 -1.316406 C 5.148438 -0.847656 4.84375 -0.488281 4.449219 -0.242188 C 4.046875 0.0078125 3.628906 0.128906 3.191406 0.128906 C 2.867188 0.128906 2.578125 0.0625 2.320313 -0.0742188 C 2.0625 -0.210938 1.851563 -0.382813 1.691406 -0.589844 L 1.691406 2.1875 Z M 1.601563 -2.820313 C 1.597656 -2.082031 1.746094 -1.539063 2.046875 -1.191406 C 2.339844 -0.835938 2.699219 -0.660156 3.125 -0.664063 C 3.550781 -0.660156 3.917969 -0.84375 4.226563 -1.210938 C 4.53125 -1.574219 4.6875 -2.136719 4.6875 -2.898438 C 4.6875 -3.625 4.535156 -4.167969 4.238281 -4.53125 C 3.9375 -4.890625 3.582031 -5.074219 3.167969 -5.074219 C 2.753906 -5.074219 2.390625 -4.878906 2.074219 -4.496094 C 1.757813 -4.109375 1.597656 -3.550781 1.601563 -2.820313 Z M 1.601563 -2.820313 "/>
</symbol>
<symbol overflow="visible" id="glyph1-4">
<path style="stroke:none;" d="M 4.445313 -2.089844 L 5.398438 -1.964844 C 5.289063 -1.308594 5.023438 -0.796875 4.597656 -0.425781 C 4.167969 -0.0546875 3.644531 0.128906 3.023438 0.128906 C 2.242188 0.128906 1.613281 -0.125 1.140625 -0.636719 C 0.664063 -1.144531 0.425781 -1.875 0.429688 -2.832031 C 0.425781 -3.441406 0.527344 -3.980469 0.734375 -4.445313 C 0.9375 -4.90625 1.25 -5.253906 1.667969 -5.484375 C 2.082031 -5.714844 2.535156 -5.828125 3.03125 -5.832031 C 3.644531 -5.828125 4.152344 -5.671875 4.546875 -5.363281 C 4.941406 -5.046875 5.191406 -4.601563 5.304688 -4.027344 L 4.367188 -3.882813 C 4.273438 -4.261719 4.117188 -4.550781 3.890625 -4.746094 C 3.664063 -4.941406 3.386719 -5.039063 3.066406 -5.039063 C 2.574219 -5.039063 2.179688 -4.863281 1.878906 -4.515625 C 1.570313 -4.164063 1.417969 -3.613281 1.421875 -2.859375 C 1.417969 -2.089844 1.566406 -1.53125 1.863281 -1.183594 C 2.15625 -0.835938 2.539063 -0.660156 3.011719 -0.664063 C 3.390625 -0.660156 3.707031 -0.777344 3.960938 -1.011719 C 4.214844 -1.242188 4.375 -1.601563 4.445313 -2.089844 Z M 4.445313 -2.089844 "/>
</symbol>
<symbol overflow="visible" id="glyph1-5">
<path style="stroke:none;" d="M 2.835938 -0.863281 L 2.976563 -0.0117188 C 2.703125 0.0429688 2.457031 0.0703125 2.246094 0.0742188 C 1.890625 0.0703125 1.621094 0.0195313 1.429688 -0.0898438 C 1.234375 -0.199219 1.097656 -0.347656 1.019531 -0.527344 C 0.941406 -0.707031 0.902344 -1.085938 0.902344 -1.671875 L 0.902344 -4.953125 L 0.195313 -4.953125 L 0.195313 -5.703125 L 0.902344 -5.703125 L 0.902344 -7.117188 L 1.863281 -7.695313 L 1.863281 -5.703125 L 2.835938 -5.703125 L 2.835938 -4.953125 L 1.863281 -4.953125 L 1.863281 -1.617188 C 1.863281 -1.339844 1.878906 -1.160156 1.914063 -1.085938 C 1.945313 -1.003906 2 -0.941406 2.078125 -0.898438 C 2.152344 -0.847656 2.261719 -0.824219 2.410156 -0.828125 C 2.515625 -0.824219 2.660156 -0.835938 2.835938 -0.863281 Z M 2.835938 -0.863281 "/>
</symbol>
<symbol overflow="visible" id="glyph1-6">
<path style="stroke:none;" d="M 4.425781 0 L 4.425781 -0.71875 C 4.058594 -0.152344 3.527344 0.128906 2.832031 0.128906 C 2.371094 0.128906 1.953125 0.00390625 1.574219 -0.246094 C 1.191406 -0.496094 0.894531 -0.84375 0.6875 -1.296875 C 0.476563 -1.742188 0.375 -2.261719 0.375 -2.847656 C 0.375 -3.414063 0.46875 -3.929688 0.660156 -4.394531 C 0.847656 -4.859375 1.132813 -5.214844 1.515625 -5.460938 C 1.894531 -5.707031 2.320313 -5.828125 2.789063 -5.832031 C 3.132813 -5.828125 3.4375 -5.757813 3.707031 -5.613281 C 3.972656 -5.46875 4.191406 -5.277344 4.359375 -5.046875 L 4.359375 -7.875 L 5.324219 -7.875 L 5.324219 0 Z M 1.371094 -2.847656 C 1.371094 -2.113281 1.523438 -1.566406 1.832031 -1.207031 C 2.136719 -0.84375 2.5 -0.660156 2.921875 -0.664063 C 3.339844 -0.660156 3.699219 -0.835938 3.996094 -1.183594 C 4.292969 -1.527344 4.441406 -2.054688 4.441406 -2.765625 C 4.441406 -3.546875 4.289063 -4.117188 3.988281 -4.484375 C 3.6875 -4.84375 3.316406 -5.027344 2.878906 -5.03125 C 2.445313 -5.027344 2.085938 -4.851563 1.800781 -4.503906 C 1.511719 -4.152344 1.371094 -3.601563 1.371094 -2.847656 Z M 1.371094 -2.847656 "/>
</symbol>
<symbol overflow="visible" id="glyph1-7">
<path style="stroke:none;" d=""/>
</symbol>
<symbol overflow="visible" id="glyph1-8">
<path style="stroke:none;" d="M 0.703125 0 L 0.703125 -7.875 L 1.671875 -7.875 L 1.671875 0 Z M 0.703125 0 "/>
</symbol>
<symbol overflow="visible" id="glyph1-9">
<path style="stroke:none;" d="M 0.367188 -2.851563 C 0.363281 -3.90625 0.65625 -4.6875 1.246094 -5.199219 C 1.734375 -5.617188 2.332031 -5.828125 3.039063 -5.832031 C 3.820313 -5.828125 4.460938 -5.574219 4.960938 -5.0625 C 5.457031 -4.546875 5.707031 -3.835938 5.710938 -2.933594 C 5.707031 -2.195313 5.597656 -1.617188 5.378906 -1.199219 C 5.15625 -0.777344 4.832031 -0.449219 4.414063 -0.21875 C 3.992188 0.015625 3.535156 0.128906 3.039063 0.128906 C 2.238281 0.128906 1.59375 -0.125 1.105469 -0.636719 C 0.609375 -1.148438 0.363281 -1.886719 0.367188 -2.851563 Z M 1.359375 -2.851563 C 1.359375 -2.121094 1.515625 -1.574219 1.835938 -1.210938 C 2.152344 -0.84375 2.554688 -0.660156 3.039063 -0.664063 C 3.515625 -0.660156 3.914063 -0.84375 4.234375 -1.210938 C 4.550781 -1.574219 4.710938 -2.132813 4.714844 -2.882813 C 4.710938 -3.585938 4.550781 -4.117188 4.234375 -4.484375 C 3.910156 -4.84375 3.511719 -5.027344 3.039063 -5.03125 C 2.554688 -5.027344 2.152344 -4.847656 1.835938 -4.488281 C 1.515625 -4.128906 1.359375 -3.582031 1.359375 -2.851563 Z M 1.359375 -2.851563 "/>
</symbol>
<symbol overflow="visible" id="glyph1-10">
<path style="stroke:none;" d="M 4.464844 0 L 4.464844 -0.835938 C 4.019531 -0.191406 3.414063 0.128906 2.652344 0.128906 C 2.3125 0.128906 2 0.0664063 1.710938 -0.0625 C 1.417969 -0.191406 1.199219 -0.355469 1.058594 -0.550781 C 0.914063 -0.746094 0.816406 -0.984375 0.761719 -1.265625 C 0.722656 -1.453125 0.703125 -1.753906 0.703125 -2.171875 L 0.703125 -5.703125 L 1.671875 -5.703125 L 1.671875 -2.539063 C 1.667969 -2.03125 1.6875 -1.691406 1.730469 -1.519531 C 1.785156 -1.261719 1.914063 -1.0625 2.113281 -0.921875 C 2.308594 -0.773438 2.554688 -0.703125 2.847656 -0.703125 C 3.136719 -0.703125 3.40625 -0.777344 3.660156 -0.925781 C 3.914063 -1.074219 4.09375 -1.273438 4.199219 -1.53125 C 4.304688 -1.785156 4.359375 -2.160156 4.359375 -2.648438 L 4.359375 -5.703125 L 5.328125 -5.703125 L 5.328125 0 Z M 4.464844 0 "/>
</symbol>
<symbol overflow="visible" id="glyph1-11">
<path style="stroke:none;" d="M 0.726563 0 L 0.726563 -5.703125 L 1.59375 -5.703125 L 1.59375 -4.894531 C 2.011719 -5.515625 2.617188 -5.828125 3.410156 -5.832031 C 3.753906 -5.828125 4.066406 -5.765625 4.355469 -5.644531 C 4.640625 -5.519531 4.859375 -5.359375 5.003906 -5.160156 C 5.144531 -4.957031 5.242188 -4.71875 5.304688 -4.445313 C 5.335938 -4.265625 5.355469 -3.953125 5.359375 -3.507813 L 5.359375 0 L 4.394531 0 L 4.394531 -3.46875 C 4.394531 -3.863281 4.355469 -4.15625 4.28125 -4.351563 C 4.203125 -4.542969 4.070313 -4.699219 3.878906 -4.820313 C 3.6875 -4.933594 3.460938 -4.992188 3.207031 -4.996094 C 2.792969 -4.992188 2.4375 -4.859375 2.140625 -4.601563 C 1.835938 -4.335938 1.6875 -3.84375 1.691406 -3.117188 L 1.691406 0 Z M 0.726563 0 "/>
</symbol>
<symbol overflow="visible" id="glyph1-12">
<path style="stroke:none;" d="M 0.339844 -1.703125 L 1.292969 -1.851563 C 1.34375 -1.46875 1.492188 -1.171875 1.742188 -0.96875 C 1.984375 -0.761719 2.328125 -0.660156 2.773438 -0.664063 C 3.210938 -0.660156 3.539063 -0.75 3.757813 -0.933594 C 3.96875 -1.113281 4.078125 -1.328125 4.082031 -1.574219 C 4.078125 -1.789063 3.984375 -1.960938 3.796875 -2.089844 C 3.664063 -2.171875 3.332031 -2.28125 2.808594 -2.417969 C 2.097656 -2.59375 1.605469 -2.75 1.332031 -2.882813 C 1.054688 -3.011719 0.847656 -3.191406 0.710938 -3.421875 C 0.566406 -3.652344 0.496094 -3.90625 0.5 -4.1875 C 0.496094 -4.441406 0.554688 -4.675781 0.671875 -4.894531 C 0.785156 -5.105469 0.945313 -5.289063 1.148438 -5.4375 C 1.296875 -5.546875 1.5 -5.636719 1.761719 -5.714844 C 2.019531 -5.789063 2.300781 -5.828125 2.601563 -5.832031 C 3.046875 -5.828125 3.4375 -5.765625 3.777344 -5.636719 C 4.113281 -5.507813 4.363281 -5.332031 4.527344 -5.113281 C 4.6875 -4.890625 4.796875 -4.597656 4.859375 -4.234375 L 3.914063 -4.101563 C 3.871094 -4.394531 3.746094 -4.621094 3.542969 -4.789063 C 3.335938 -4.953125 3.042969 -5.039063 2.667969 -5.039063 C 2.222656 -5.039063 1.90625 -4.964844 1.71875 -4.816406 C 1.523438 -4.667969 1.429688 -4.496094 1.433594 -4.300781 C 1.429688 -4.175781 1.46875 -4.0625 1.550781 -3.964844 C 1.628906 -3.859375 1.753906 -3.773438 1.921875 -3.707031 C 2.015625 -3.667969 2.300781 -3.585938 2.777344 -3.460938 C 3.460938 -3.273438 3.9375 -3.121094 4.207031 -3.007813 C 4.476563 -2.890625 4.6875 -2.722656 4.84375 -2.503906 C 4.996094 -2.277344 5.074219 -2.003906 5.074219 -1.675781 C 5.074219 -1.351563 4.980469 -1.046875 4.792969 -0.765625 C 4.605469 -0.480469 4.332031 -0.261719 3.980469 -0.105469 C 3.621094 0.0507813 3.222656 0.128906 2.777344 0.128906 C 2.035156 0.128906 1.46875 -0.0234375 1.082031 -0.332031 C 0.691406 -0.640625 0.445313 -1.097656 0.339844 -1.703125 Z M 0.339844 -1.703125 "/>
</symbol>
<symbol overflow="visible" id="glyph1-13">
<path style="stroke:none;" d="M 2.574219 2.316406 C 2.035156 1.636719 1.585938 0.851563 1.21875 -0.046875 C 0.847656 -0.949219 0.660156 -1.882813 0.664063 -2.851563 C 0.660156 -3.699219 0.800781 -4.515625 1.078125 -5.300781 C 1.398438 -6.203125 1.894531 -7.105469 2.574219 -8.007813 L 3.265625 -8.007813 C 2.828125 -7.261719 2.542969 -6.730469 2.40625 -6.414063 C 2.183594 -5.917969 2.011719 -5.402344 1.890625 -4.867188 C 1.734375 -4.195313 1.65625 -3.523438 1.660156 -2.847656 C 1.65625 -1.121094 2.191406 0.597656 3.265625 2.316406 Z M 2.574219 2.316406 "/>
</symbol>
<symbol overflow="visible" id="glyph1-14">
<path style="stroke:none;" d="M 1.359375 2.316406 L 0.664063 2.316406 C 1.734375 0.597656 2.273438 -1.121094 2.273438 -2.847656 C 2.273438 -3.519531 2.195313 -4.1875 2.039063 -4.851563 C 1.917969 -5.386719 1.746094 -5.902344 1.53125 -6.398438 C 1.386719 -6.71875 1.097656 -7.253906 0.664063 -8.007813 L 1.359375 -8.007813 C 2.03125 -7.105469 2.527344 -6.203125 2.851563 -5.300781 C 3.125 -4.515625 3.261719 -3.699219 3.265625 -2.851563 C 3.261719 -1.882813 3.078125 -0.949219 2.707031 -0.046875 C 2.335938 0.851563 1.886719 1.636719 1.359375 2.316406 Z M 1.359375 2.316406 "/>
</symbol>
<symbol overflow="visible" id="glyph1-15">
<path style="stroke:none;" d="M 0.847656 0 L 0.847656 -7.875 L 3.5625 -7.875 C 4.171875 -7.875 4.636719 -7.835938 4.960938 -7.761719 C 5.410156 -7.65625 5.796875 -7.46875 6.117188 -7.195313 C 6.53125 -6.84375 6.839844 -6.394531 7.050781 -5.851563 C 7.253906 -5.300781 7.359375 -4.675781 7.359375 -3.980469 C 7.359375 -3.378906 7.289063 -2.847656 7.148438 -2.386719 C 7.007813 -1.921875 6.828125 -1.542969 6.609375 -1.242188 C 6.390625 -0.9375 6.152344 -0.699219 5.894531 -0.527344 C 5.632813 -0.355469 5.316406 -0.222656 4.953125 -0.132813 C 4.585938 -0.0429688 4.167969 0 3.691406 0 Z M 1.890625 -0.929688 L 3.570313 -0.929688 C 4.085938 -0.925781 4.496094 -0.972656 4.792969 -1.074219 C 5.089844 -1.167969 5.324219 -1.304688 5.5 -1.484375 C 5.746094 -1.726563 5.9375 -2.058594 6.078125 -2.476563 C 6.210938 -2.894531 6.28125 -3.402344 6.285156 -3.996094 C 6.28125 -4.816406 6.144531 -5.449219 5.878906 -5.894531 C 5.605469 -6.335938 5.277344 -6.632813 4.894531 -6.785156 C 4.609375 -6.890625 4.160156 -6.941406 3.546875 -6.945313 L 1.890625 -6.945313 Z M 1.890625 -0.929688 "/>
</symbol>
<symbol overflow="visible" id="glyph1-16">
<path style="stroke:none;" d="M 0.730469 -6.761719 L 0.730469 -7.875 L 1.695313 -7.875 L 1.695313 -6.761719 Z M 0.730469 0 L 0.730469 -5.703125 L 1.695313 -5.703125 L 1.695313 0 Z M 0.730469 0 "/>
</symbol>
<symbol overflow="visible" id="glyph1-17">
<path style="stroke:none;" d="M -0.167969 2.1875 L -0.167969 1.488281 L 6.242188 1.488281 L 6.242188 2.1875 Z M -0.167969 2.1875 "/>
</symbol>
<symbol overflow="visible" id="glyph1-18">
<path style="stroke:none;" d="M 0.726563 0 L 0.726563 -7.875 L 1.691406 -7.875 L 1.691406 -5.046875 C 2.140625 -5.566406 2.710938 -5.828125 3.398438 -5.832031 C 3.820313 -5.828125 4.1875 -5.746094 4.5 -5.582031 C 4.8125 -5.414063 5.035156 -5.183594 5.167969 -4.890625 C 5.300781 -4.597656 5.367188 -4.171875 5.371094 -3.613281 L 5.371094 0 L 4.40625 0 L 4.40625 -3.613281 C 4.40625 -4.09375 4.300781 -4.445313 4.089844 -4.667969 C 3.878906 -4.886719 3.582031 -4.996094 3.203125 -5 C 2.914063 -4.996094 2.644531 -4.921875 2.394531 -4.777344 C 2.140625 -4.625 1.960938 -4.425781 1.851563 -4.171875 C 1.742188 -3.917969 1.6875 -3.566406 1.691406 -3.121094 L 1.691406 0 Z M 0.726563 0 "/>
</symbol>
<symbol overflow="visible" id="glyph1-19">
<path style="stroke:none;" d="M 0.726563 0 L 0.726563 -5.703125 L 1.589844 -5.703125 L 1.589844 -4.902344 C 1.765625 -5.179688 2.003906 -5.40625 2.304688 -5.578125 C 2.597656 -5.746094 2.9375 -5.828125 3.320313 -5.832031 C 3.738281 -5.828125 4.085938 -5.742188 4.359375 -5.566406 C 4.628906 -5.390625 4.816406 -5.144531 4.929688 -4.835938 C 5.378906 -5.496094 5.96875 -5.828125 6.691406 -5.832031 C 7.253906 -5.828125 7.6875 -5.671875 7.996094 -5.363281 C 8.296875 -5.046875 8.449219 -4.566406 8.453125 -3.914063 L 8.453125 0 L 7.492188 0 L 7.492188 -3.59375 C 7.488281 -3.976563 7.457031 -4.253906 7.398438 -4.425781 C 7.332031 -4.59375 7.21875 -4.734375 7.058594 -4.839844 C 6.890625 -4.941406 6.695313 -4.992188 6.476563 -4.996094 C 6.070313 -4.992188 5.738281 -4.859375 5.476563 -4.59375 C 5.210938 -4.328125 5.078125 -3.898438 5.082031 -3.3125 L 5.082031 0 L 4.113281 0 L 4.113281 -3.707031 C 4.113281 -4.132813 4.03125 -4.453125 3.875 -4.671875 C 3.714844 -4.882813 3.460938 -4.992188 3.105469 -4.996094 C 2.832031 -4.992188 2.578125 -4.921875 2.347656 -4.78125 C 2.117188 -4.636719 1.949219 -4.425781 1.847656 -4.152344 C 1.738281 -3.875 1.6875 -3.476563 1.691406 -2.960938 L 1.691406 0 Z M 0.726563 0 "/>
</symbol>
<symbol overflow="visible" id="glyph2-0">
<path style="stroke:none;" d="M 0.554688 0 L 0.554688 -6.875 L 6.054688 -6.875 L 6.054688 0 Z M 0.726563 -0.171875 L 5.882813 -0.171875 L 5.882813 -6.703125 L 0.726563 -6.703125 Z M 0.726563 -0.171875 "/>
</symbol>
<symbol overflow="visible" id="glyph2-1">
<path style="stroke:none;" d=""/>
</symbol>
<symbol overflow="visible" id="glyph2-2">
<path style="stroke:none;" d="M 3.03125 -3.753906 L 1.21875 0 L 0.261719 0 L 2.722656 -5.066406 L 2.632813 -5.539063 C 2.519531 -6.050781 2.375 -6.402344 2.199219 -6.585938 C 2.015625 -6.769531 1.816406 -6.859375 1.59375 -6.863281 C 1.390625 -6.859375 1.214844 -6.785156 1.066406 -6.640625 C 0.917969 -6.492188 0.820313 -6.257813 0.773438 -5.929688 L 0.578125 -5.929688 C 0.589844 -6.484375 0.726563 -6.929688 0.992188 -7.273438 C 1.179688 -7.511719 1.414063 -7.632813 1.6875 -7.636719 C 1.925781 -7.632813 2.128906 -7.539063 2.304688 -7.351563 C 2.558594 -7.058594 2.769531 -6.546875 2.9375 -5.816406 L 3.796875 -2.035156 C 3.925781 -1.464844 4.070313 -1.097656 4.238281 -0.933594 C 4.394531 -0.757813 4.585938 -0.671875 4.808594 -0.675781 C 5.011719 -0.671875 5.183594 -0.742188 5.320313 -0.882813 C 5.453125 -1.019531 5.53125 -1.246094 5.558594 -1.558594 L 5.769531 -1.558594 C 5.769531 -1.464844 5.769531 -1.394531 5.773438 -1.347656 C 5.769531 -0.878906 5.65625 -0.5 5.425781 -0.214844 C 5.246094 0 5.015625 0.105469 4.738281 0.109375 C 4.484375 0.105469 4.257813 0.00390625 4.0625 -0.207031 C 3.863281 -0.417969 3.679688 -0.90625 3.511719 -1.664063 Z M 3.03125 -3.753906 "/>
</symbol>
<symbol overflow="visible" id="glyph3-0">
<path style="stroke:none;" d="M 0 -1.375 L -6.875 -1.375 L -6.875 -6.875 L 0 -6.875 Z M -0.171875 -1.546875 L -0.171875 -6.703125 L -6.703125 -6.703125 L -6.703125 -1.546875 Z M -0.171875 -1.546875 "/>
</symbol>
<symbol overflow="visible" id="glyph3-1">
<path style="stroke:none;" d="M 0 -0.847656 L -7.875 -0.847656 L -7.875 -3.820313 C -7.875 -4.339844 -7.847656 -4.738281 -7.796875 -5.015625 C -7.730469 -5.402344 -7.609375 -5.726563 -7.429688 -5.988281 C -7.25 -6.25 -6.996094 -6.460938 -6.671875 -6.621094 C -6.34375 -6.777344 -5.984375 -6.855469 -5.597656 -6.859375 C -4.925781 -6.855469 -4.359375 -6.640625 -3.894531 -6.21875 C -3.429688 -5.789063 -3.199219 -5.019531 -3.199219 -3.910156 L -3.203125 -1.890625 L 0 -1.890625 Z M -4.128906 -1.890625 L -4.128906 -3.925781 C -4.125 -4.597656 -4.25 -5.074219 -4.503906 -5.359375 C -4.753906 -5.640625 -5.105469 -5.78125 -5.5625 -5.785156 C -5.890625 -5.78125 -6.175781 -5.699219 -6.410156 -5.535156 C -6.644531 -5.367188 -6.796875 -5.148438 -6.875 -4.875 C -6.917969 -4.699219 -6.941406 -4.375 -6.945313 -3.90625 L -6.945313 -1.890625 Z M -4.128906 -1.890625 "/>
</symbol>
<symbol overflow="visible" id="glyph4-0">
<path style="stroke:none;" d="M 0 -0.960938 L -4.8125 -0.960938 L -4.8125 -4.8125 L 0 -4.8125 Z M -0.121094 -1.082031 L -0.121094 -4.691406 L -4.691406 -4.691406 L -4.691406 -1.082031 Z M -0.121094 -1.082031 "/>
</symbol>
<symbol overflow="visible" id="glyph4-1">
<path style="stroke:none;" d="M -0.492188 -3.113281 C -0.277344 -2.859375 -0.125 -2.621094 -0.0390625 -2.390625 C 0.046875 -2.15625 0.0859375 -1.90625 0.0898438 -1.644531 C 0.0859375 -1.203125 -0.015625 -0.863281 -0.230469 -0.628906 C -0.441406 -0.390625 -0.71875 -0.273438 -1.054688 -0.277344 C -1.25 -0.273438 -1.425781 -0.320313 -1.589844 -0.410156 C -1.746094 -0.5 -1.875 -0.617188 -1.976563 -0.761719 C -2.070313 -0.902344 -2.144531 -1.0625 -2.199219 -1.25 C -2.230469 -1.378906 -2.265625 -1.582031 -2.300781 -1.851563 C -2.363281 -2.394531 -2.441406 -2.796875 -2.535156 -3.058594 C -2.625 -3.058594 -2.683594 -3.058594 -2.710938 -3.058594 C -2.984375 -3.058594 -3.179688 -2.992188 -3.292969 -2.867188 C -3.445313 -2.691406 -3.519531 -2.4375 -3.523438 -2.097656 C -3.519531 -1.777344 -3.464844 -1.539063 -3.355469 -1.390625 C -3.242188 -1.234375 -3.042969 -1.125 -2.761719 -1.054688 L -2.855469 -0.394531 C -3.132813 -0.449219 -3.363281 -0.550781 -3.539063 -0.691406 C -3.710938 -0.828125 -3.84375 -1.027344 -3.941406 -1.289063 C -4.03125 -1.546875 -4.078125 -1.847656 -4.082031 -2.195313 C -4.078125 -2.535156 -4.039063 -2.8125 -3.960938 -3.027344 C -3.882813 -3.238281 -3.78125 -3.394531 -3.660156 -3.496094 C -3.535156 -3.59375 -3.382813 -3.664063 -3.199219 -3.707031 C -3.082031 -3.726563 -2.871094 -3.738281 -2.574219 -3.742188 L -1.671875 -3.742188 C -1.039063 -3.738281 -0.644531 -3.753906 -0.480469 -3.785156 C -0.3125 -3.8125 -0.152344 -3.867188 0 -3.957031 L 0 -3.25 C -0.140625 -3.175781 -0.304688 -3.128906 -0.492188 -3.113281 Z M -2.003906 -3.058594 C -1.902344 -2.808594 -1.816406 -2.4375 -1.75 -1.953125 C -1.707031 -1.671875 -1.660156 -1.476563 -1.613281 -1.359375 C -1.558594 -1.242188 -1.488281 -1.152344 -1.394531 -1.09375 C -1.296875 -1.027344 -1.1875 -0.996094 -1.070313 -1 C -0.886719 -0.996094 -0.738281 -1.0625 -0.621094 -1.203125 C -0.5 -1.335938 -0.4375 -1.539063 -0.441406 -1.804688 C -0.4375 -2.0625 -0.496094 -2.292969 -0.609375 -2.5 C -0.722656 -2.699219 -0.878906 -2.847656 -1.078125 -2.949219 C -1.230469 -3.019531 -1.453125 -3.058594 -1.753906 -3.058594 Z M -2.003906 -3.058594 "/>
</symbol>
</g>
<clipPath id="clip1">
  <path d="M 42.238281 5.480469 L 519.519531 5.480469 L 519.519531 290.226563 L 42.238281 290.226563 Z M 42.238281 5.480469 "/>
</clipPath>
</defs>
<g id="surface6">
<rect x="0" y="0" width="525" height="324" style="fill:rgb(100%,100%,100%);fill-opacity:1;stroke:none;"/>
<path style="fill:none;stroke-width:1.066978;stroke-linecap:round;stroke-linejoin:round;stroke:rgb(100%,100%,100%);stroke-opacity:1;stroke-miterlimit:10;" d="M 0 324 L 525 324 L 525 0 L 0 0 Z M 0 324 "/>
<g clip-path="url(#clip1)" clip-rule="nonzero">
<path style=" stroke:none;fill-rule:nonzero;fill:rgb(100%,100%,100%);fill-opacity:1;" d="M 42.238281 290.226563 L 519.519531 290.226563 L 519.519531 5.480469 L 42.238281 5.480469 Z M 42.238281 290.226563 "/>
</g>
<path style="fill:none;stroke-width:1.066978;stroke-linecap:butt;stroke-linejoin:round;stroke:rgb(0%,0%,0%);stroke-opacity:1;stroke-miterlimit:10;" d="M 63.933594 18.421875 L 72.609375 76.226563 L 81.289063 121.355469 L 89.96875 157.6875 L 98.644531 185.226563 L 107.324219 206.761719 L 116 223.34375 L 124.679688 236.441406 L 133.355469 246.582031 L 142.035156 254.15625 L 150.710938 260.113281 L 159.390625 264.382813 L 168.066406 267.746094 L 176.746094 270.144531 L 185.421875 272.042969 L 194.101563 273.453125 L 202.777344 274.472656 L 211.457031 275.210938 L 220.132813 275.804688 L 228.8125 276.203125 L 237.492188 276.507813 L 246.167969 276.71875 L 254.847656 276.882813 L 263.523438 276.996094 L 272.203125 277.082031 L 280.878906 277.140625 L 289.558594 277.179688 L 298.234375 277.210938 L 306.914063 277.230469 L 315.589844 277.246094 L 324.269531 277.257813 L 332.945313 277.265625 L 341.625 277.269531 L 350.300781 277.273438 L 358.980469 277.277344 L 367.65625 277.277344 L 376.335938 277.28125 L 497.824219 277.28125 "/>
<path style="fill:none;stroke-width:1.066978;stroke-linecap:butt;stroke-linejoin:round;stroke:rgb(90.196078%,62.352941%,0%);stroke-opacity:1;stroke-miterlimit:10;" d="M 63.933594 18.421875 L 72.609375 20.570313 L 81.289063 26.742188 L 89.96875 36.253906 L 98.644531 48.300781 L 107.324219 62.0625 L 116 78.703125 L 124.679688 94.996094 L 133.355469 112.144531 L 142.035156 129.664063 L 150.710938 146.515625 L 159.390625 162.191406 L 168.066406 176.375 L 176.746094 190.3125 L 185.421875 202.964844 L 194.101563 214 L 202.777344 223.976563 L 211.457031 233.140625 L 220.132813 240.265625 L 228.8125 246.855469 L 237.492188 252.613281 L 246.167969 256.96875 L 254.847656 260.941406 L 263.523438 264.179688 L 272.203125 266.769531 L 280.878906 268.917969 L 289.558594 270.6875 L 298.234375 272.058594 L 306.914063 273.261719 L 315.589844 274.144531 L 324.269531 274.859375 L 332.945313 275.417969 L 341.625 275.832031 L 350.300781 276.195313 L 358.980469 276.445313 L 367.65625 276.664063 L 376.335938 276.8125 L 385.015625 276.933594 L 393.691406 277.023438 L 402.371094 277.085938 L 411.046875 277.136719 L 419.726563 277.175781 L 428.402344 277.207031 L 437.082031 277.226563 L 445.757813 277.242188 L 454.4375 277.253906 L 463.113281 277.261719 L 471.792969 277.265625 L 480.46875 277.269531 L 489.148438 277.273438 L 497.824219 277.277344 "/>
<path style="fill:none;stroke-width:1.066978;stroke-linecap:butt;stroke-linejoin:round;stroke:rgb(0%,0%,0%);stroke-opacity:1;stroke-miterlimit:10;" d="M 42.238281 290.226563 L 42.238281 5.480469 "/>
<g style="fill:rgb(30.196078%,30.196078%,30.196078%);fill-opacity:1;">
  <use xlink:href="#glyph0-1" x="20.179688" y="280.433594"/>
  <use xlink:href="#glyph0-2" x="25.073828" y="280.433594"/>
  <use xlink:href="#glyph0-1" x="27.51875" y="280.433594"/>
  <use xlink:href="#glyph0-1" x="32.412891" y="280.433594"/>
</g>
<g style="fill:rgb(30.196078%,30.196078%,30.196078%);fill-opacity:1;">
  <use xlink:href="#glyph0-1" x="20.179688" y="215.71875"/>
  <use xlink:href="#glyph0-2" x="25.073828" y="215.71875"/>
  <use xlink:href="#glyph0-3" x="27.51875" y="215.71875"/>
  <use xlink:href="#glyph0-4" x="32.412891" y="215.71875"/>
</g>
<g style="fill:rgb(30.196078%,30.196078%,30.196078%);fill-opacity:1;">
  <use xlink:href="#glyph0-1" x="20.179688" y="151.003906"/>
  <use xlink:href="#glyph0-2" x="25.073828" y="151.003906"/>
  <use xlink:href="#glyph0-4" x="27.51875" y="151.003906"/>
  <use xlink:href="#glyph0-1" x="32.412891" y="151.003906"/>
</g>
<g style="fill:rgb(30.196078%,30.196078%,30.196078%);fill-opacity:1;">
  <use xlink:href="#glyph0-1" x="20.179688" y="86.289063"/>
  <use xlink:href="#glyph0-2" x="25.073828" y="86.289063"/>
  <use xlink:href="#glyph0-5" x="27.51875" y="86.289063"/>
  <use xlink:href="#glyph0-4" x="32.412891" y="86.289063"/>
</g>
<g style="fill:rgb(30.196078%,30.196078%,30.196078%);fill-opacity:1;">
  <use xlink:href="#glyph0-6" x="20.179688" y="21.570313"/>
  <use xlink:href="#glyph0-2" x="25.073828" y="21.570313"/>
  <use xlink:href="#glyph0-1" x="27.51875" y="21.570313"/>
  <use xlink:href="#glyph0-1" x="32.412891" y="21.570313"/>
</g>
<path style="fill:none;stroke-width:1.066978;stroke-linecap:butt;stroke-linejoin:round;stroke:rgb(20%,20%,20%);stroke-opacity:1;stroke-miterlimit:10;" d="M 39.5 277.28125 L 42.238281 277.28125 "/>
<path style="fill:none;stroke-width:1.066978;stroke-linecap:butt;stroke-linejoin:round;stroke:rgb(20%,20%,20%);stroke-opacity:1;stroke-miterlimit:10;" d="M 39.5 212.566406 L 42.238281 212.566406 "/>
<path style="fill:none;stroke-width:1.066978;stroke-linecap:butt;stroke-linejoin:round;stroke:rgb(20%,20%,20%);stroke-opacity:1;stroke-miterlimit:10;" d="M 39.5 147.851563 L 42.238281 147.851563 "/>
<path style="fill:none;stroke-width:1.066978;stroke-linecap:butt;stroke-linejoin:round;stroke:rgb(20%,20%,20%);stroke-opacity:1;stroke-miterlimit:10;" d="M 39.5 83.136719 L 42.238281 83.136719 "/>
<path style="fill:none;stroke-width:1.066978;stroke-linecap:butt;stroke-linejoin:round;stroke:rgb(20%,20%,20%);stroke-opacity:1;stroke-miterlimit:10;" d="M 39.5 18.421875 L 42.238281 18.421875 "/>
<path style="fill:none;stroke-width:1.066978;stroke-linecap:butt;stroke-linejoin:round;stroke:rgb(0%,0%,0%);stroke-opacity:1;stroke-miterlimit:10;" d="M 42.238281 290.226563 L 519.519531 290.226563 "/>
<path style="fill:none;stroke-width:1.066978;stroke-linecap:butt;stroke-linejoin:round;stroke:rgb(20%,20%,20%);stroke-opacity:1;stroke-miterlimit:10;" d="M 63.933594 292.964844 L 63.933594 290.226563 "/>
<path style="fill:none;stroke-width:1.066978;stroke-linecap:butt;stroke-linejoin:round;stroke:rgb(20%,20%,20%);stroke-opacity:1;stroke-miterlimit:10;" d="M 150.710938 292.964844 L 150.710938 290.226563 "/>
<path style="fill:none;stroke-width:1.066978;stroke-linecap:butt;stroke-linejoin:round;stroke:rgb(20%,20%,20%);stroke-opacity:1;stroke-miterlimit:10;" d="M 237.492188 292.964844 L 237.492188 290.226563 "/>
<path style="fill:none;stroke-width:1.066978;stroke-linecap:butt;stroke-linejoin:round;stroke:rgb(20%,20%,20%);stroke-opacity:1;stroke-miterlimit:10;" d="M 324.269531 292.964844 L 324.269531 290.226563 "/>
<path style="fill:none;stroke-width:1.066978;stroke-linecap:butt;stroke-linejoin:round;stroke:rgb(20%,20%,20%);stroke-opacity:1;stroke-miterlimit:10;" d="M 411.046875 292.964844 L 411.046875 290.226563 "/>
<path style="fill:none;stroke-width:1.066978;stroke-linecap:butt;stroke-linejoin:round;stroke:rgb(20%,20%,20%);stroke-opacity:1;stroke-miterlimit:10;" d="M 497.824219 292.964844 L 497.824219 290.226563 "/>
<g style="fill:rgb(30.196078%,30.196078%,30.196078%);fill-opacity:1;">
  <use xlink:href="#glyph0-1" x="61.488281" y="301.457031"/>
</g>
<g style="fill:rgb(30.196078%,30.196078%,30.196078%);fill-opacity:1;">
  <use xlink:href="#glyph0-6" x="148.265625" y="301.457031"/>
</g>
<g style="fill:rgb(30.196078%,30.196078%,30.196078%);fill-opacity:1;">
  <use xlink:href="#glyph0-3" x="235.046875" y="301.457031"/>
</g>
<g style="fill:rgb(30.196078%,30.196078%,30.196078%);fill-opacity:1;">
  <use xlink:href="#glyph0-7" x="321.824219" y="301.457031"/>
</g>
<g style="fill:rgb(30.196078%,30.196078%,30.196078%);fill-opacity:1;">
  <use xlink:href="#glyph0-8" x="408.601563" y="301.457031"/>
</g>
<g style="fill:rgb(30.196078%,30.196078%,30.196078%);fill-opacity:1;">
  <use xlink:href="#glyph0-4" x="495.378906" y="301.457031"/>
</g>
<g style="fill:rgb(0%,0%,0%);fill-opacity:1;">
  <use xlink:href="#glyph1-1" x="218.273438" y="314.207031"/>
  <use xlink:href="#glyph1-2" x="224.391113" y="314.207031"/>
  <use xlink:href="#glyph1-3" x="229.891113" y="314.207031"/>
  <use xlink:href="#glyph1-1" x="236.008789" y="314.207031"/>
  <use xlink:href="#glyph1-4" x="242.126465" y="314.207031"/>
  <use xlink:href="#glyph1-5" x="247.626465" y="314.207031"/>
  <use xlink:href="#glyph1-1" x="250.682617" y="314.207031"/>
  <use xlink:href="#glyph1-6" x="256.800293" y="314.207031"/>
  <use xlink:href="#glyph1-7" x="262.917969" y="314.207031"/>
  <use xlink:href="#glyph1-4" x="265.974121" y="314.207031"/>
  <use xlink:href="#glyph1-1" x="271.474121" y="314.207031"/>
  <use xlink:href="#glyph1-8" x="277.591797" y="314.207031"/>
  <use xlink:href="#glyph1-8" x="280.035645" y="314.207031"/>
  <use xlink:href="#glyph1-7" x="282.479492" y="314.207031"/>
  <use xlink:href="#glyph1-4" x="285.535645" y="314.207031"/>
  <use xlink:href="#glyph1-9" x="291.035645" y="314.207031"/>
  <use xlink:href="#glyph1-10" x="297.15332" y="314.207031"/>
  <use xlink:href="#glyph1-11" x="303.270996" y="314.207031"/>
  <use xlink:href="#glyph1-5" x="309.388672" y="314.207031"/>
  <use xlink:href="#glyph1-12" x="312.444824" y="314.207031"/>
  <use xlink:href="#glyph1-7" x="317.944824" y="314.207031"/>
  <use xlink:href="#glyph1-7" x="321.000977" y="314.207031"/>
  <use xlink:href="#glyph1-13" x="324.057129" y="314.207031"/>
</g>
<g style="fill:rgb(0%,0%,0%);fill-opacity:1;">
  <use xlink:href="#glyph2-1" x="327.722656" y="314.207031"/>
</g>
<g style="fill:rgb(0%,0%,0%);fill-opacity:1;">
  <use xlink:href="#glyph2-2" x="330.472656" y="314.207031"/>
</g>
<g style="fill:rgb(0%,0%,0%);fill-opacity:1;">
  <use xlink:href="#glyph2-1" x="337.070313" y="314.207031"/>
</g>
<g style="fill:rgb(0%,0%,0%);fill-opacity:1;">
  <use xlink:href="#glyph1-14" x="339.820313" y="314.207031"/>
</g>
<g style="fill:rgb(0%,0%,0%);fill-opacity:1;">
  <use xlink:href="#glyph3-1" x="13.351563" y="153.664063"/>
</g>
<g style="fill:rgb(0%,0%,0%);fill-opacity:1;">
  <use xlink:href="#glyph4-1" x="15.351563" y="146.324219"/>
</g>
<path style=" stroke:none;fill-rule:nonzero;fill:rgb(100%,100%,100%);fill-opacity:1;" d="M 389.875 107.164063 L 505.984375 107.164063 L 505.984375 46.164063 L 389.875 46.164063 Z M 389.875 107.164063 "/>
<g style="fill:rgb(0%,0%,0%);fill-opacity:1;">
  <use xlink:href="#glyph1-15" x="395.351563" y="60.582031"/>
  <use xlink:href="#glyph1-16" x="403.29541" y="60.582031"/>
  <use xlink:href="#glyph1-8" x="405.739258" y="60.582031"/>
  <use xlink:href="#glyph1-10" x="408.183105" y="60.582031"/>
  <use xlink:href="#glyph1-5" x="414.300781" y="60.582031"/>
  <use xlink:href="#glyph1-16" x="417.356934" y="60.582031"/>
  <use xlink:href="#glyph1-9" x="419.800781" y="60.582031"/>
  <use xlink:href="#glyph1-11" x="425.918457" y="60.582031"/>
  <use xlink:href="#glyph1-17" x="432.036133" y="60.582031"/>
  <use xlink:href="#glyph1-12" x="438.153809" y="60.582031"/>
  <use xlink:href="#glyph1-4" x="443.653809" y="60.582031"/>
  <use xlink:href="#glyph1-18" x="449.153809" y="60.582031"/>
  <use xlink:href="#glyph1-1" x="455.271484" y="60.582031"/>
  <use xlink:href="#glyph1-19" x="461.38916" y="60.582031"/>
  <use xlink:href="#glyph1-1" x="470.552246" y="60.582031"/>
</g>
<path style="fill:none;stroke-width:1.066978;stroke-linecap:butt;stroke-linejoin:round;stroke:rgb(0%,0%,0%);stroke-opacity:1;stroke-miterlimit:10;" d="M 397.082031 75.765625 L 410.90625 75.765625 "/>
<path style="fill:none;stroke-width:1.066978;stroke-linecap:butt;stroke-linejoin:round;stroke:rgb(90.196078%,62.352941%,0%);stroke-opacity:1;stroke-miterlimit:10;" d="M 397.082031 93.046875 L 410.90625 93.046875 "/>
<g style="fill:rgb(0%,0%,0%);fill-opacity:1;">
  <use xlink:href="#glyph0-9" x="418.113281" y="78.914063"/>
  <use xlink:href="#glyph0-10" x="423.982813" y="78.914063"/>
  <use xlink:href="#glyph0-11" x="428.382813" y="78.914063"/>
  <use xlink:href="#glyph0-12" x="433.276953" y="78.914063"/>
  <use xlink:href="#glyph0-13" x="438.171094" y="78.914063"/>
  <use xlink:href="#glyph0-12" x="445.501562" y="78.914063"/>
  <use xlink:href="#glyph0-14" x="450.395703" y="78.914063"/>
  <use xlink:href="#glyph0-15" x="452.840625" y="78.914063"/>
  <use xlink:href="#glyph0-16" x="455.771094" y="78.914063"/>
  <use xlink:href="#glyph0-9" x="462.126172" y="78.914063"/>
  <use xlink:href="#glyph0-17" x="467.995703" y="78.914063"/>
  <use xlink:href="#glyph0-18" x="472.889844" y="78.914063"/>
  <use xlink:href="#glyph0-6" x="478.028906" y="78.914063"/>
  <use xlink:href="#glyph0-1" x="482.923047" y="78.914063"/>
  <use xlink:href="#glyph0-1" x="487.817187" y="78.914063"/>
  <use xlink:href="#glyph0-1" x="492.711328" y="78.914063"/>
  <use xlink:href="#glyph0-19" x="497.605469" y="78.914063"/>
</g>
<g style="fill:rgb(0%,0%,0%);fill-opacity:1;">
  <use xlink:href="#glyph0-9" x="418.113281" y="96.195313"/>
  <use xlink:href="#glyph0-10" x="423.982813" y="96.195313"/>
  <use xlink:href="#glyph0-11" x="428.382813" y="96.195313"/>
  <use xlink:href="#glyph0-12" x="433.276953" y="96.195313"/>
  <use xlink:href="#glyph0-13" x="438.171094" y="96.195313"/>
  <use xlink:href="#glyph0-12" x="445.501562" y="96.195313"/>
  <use xlink:href="#glyph0-14" x="450.395703" y="96.195313"/>
  <use xlink:href="#glyph0-15" x="452.840625" y="96.195313"/>
  <use xlink:href="#glyph0-16" x="455.771094" y="96.195313"/>
  <use xlink:href="#glyph0-9" x="462.126172" y="96.195313"/>
  <use xlink:href="#glyph0-17" x="467.995703" y="96.195313"/>
  <use xlink:href="#glyph0-18" x="472.889844" y="96.195313"/>
  <use xlink:href="#glyph0-3" x="478.028906" y="96.195313"/>
  <use xlink:href="#glyph0-1" x="482.923047" y="96.195313"/>
  <use xlink:href="#glyph0-1" x="487.817187" y="96.195313"/>
  <use xlink:href="#glyph0-1" x="492.711328" y="96.195313"/>
  <use xlink:href="#glyph0-19" x="497.605469" y="96.195313"/>
</g>
</g>
</svg>
