<?xml version="1.0" encoding="UTF-8"?>
<svg xmlns="http://www.w3.org/2000/svg" xmlns:xlink="http://www.w3.org/1999/xlink" width="525pt" height="324pt" viewBox="0 0 525 324" version="1.1">
<defs>
<g>
<symbol overflow="visible" id="glyph0-0">
<path style="stroke:none;" d="M 1.101563 0 L 1.101563 -5.5 L 5.5 -5.5 L 5.5 0 Z M 1.238281 -0.136719 L 5.363281 -0.136719 L 5.363281 -5.363281 L 1.238281 -5.363281 Z M 1.238281 -0.136719 "/>
</symbol>
<symbol overflow="visible" id="glyph0-1">
<path style="stroke:none;" d="M 0.367188 -3.105469 C 0.363281 -3.847656 0.4375 -4.445313 0.59375 -4.902344 C 0.742188 -5.355469 0.972656 -5.707031 1.277344 -5.953125 C 1.578125 -6.199219 1.957031 -6.320313 2.417969 -6.324219 C 2.753906 -6.320313 3.050781 -6.253906 3.308594 -6.121094 C 3.5625 -5.984375 3.773438 -5.789063 3.9375 -5.53125 C 4.101563 -5.273438 4.230469 -4.960938 4.328125 -4.59375 C 4.421875 -4.226563 4.46875 -3.730469 4.472656 -3.105469 C 4.46875 -2.367188 4.394531 -1.769531 4.242188 -1.316406 C 4.089844 -0.859375 3.863281 -0.507813 3.5625 -0.261719 C 3.257813 -0.015625 2.875 0.105469 2.417969 0.109375 C 1.808594 0.105469 1.332031 -0.109375 0.988281 -0.546875 C 0.570313 -1.066406 0.363281 -1.921875 0.367188 -3.105469 Z M 1.160156 -3.105469 C 1.160156 -2.070313 1.28125 -1.378906 1.523438 -1.039063 C 1.765625 -0.695313 2.0625 -0.527344 2.417969 -0.527344 C 2.773438 -0.527344 3.074219 -0.699219 3.316406 -1.042969 C 3.558594 -1.386719 3.679688 -2.074219 3.679688 -3.105469 C 3.679688 -4.144531 3.558594 -4.832031 3.316406 -5.171875 C 3.074219 -5.511719 2.769531 -5.683594 2.410156 -5.683594 C 2.050781 -5.683594 1.769531 -5.53125 1.558594 -5.234375 C 1.292969 -4.84375 1.160156 -4.136719 1.160156 -3.105469 Z M 1.160156 -3.105469 "/>
</symbol>
<symbol overflow="visible" id="glyph0-2">
<path style="stroke:none;" d="M 0.800781 0 L 0.800781 -0.882813 L 1.679688 -0.882813 L 1.679688 0 Z M 0.800781 0 "/>
</symbol>
<symbol overflow="visible" id="glyph0-3">
<path style="stroke:none;" d="M 4.429688 -0.742188 L 4.429688 0 L 0.265625 0 C 0.257813 -0.1875 0.289063 -0.367188 0.355469 -0.539063 C 0.460938 -0.820313 0.628906 -1.097656 0.863281 -1.375 C 1.09375 -1.648438 1.433594 -1.964844 1.878906 -2.328125 C 2.5625 -2.886719 3.023438 -3.332031 3.265625 -3.664063 C 3.5 -3.988281 3.621094 -4.300781 3.625 -4.59375 C 3.621094 -4.898438 3.511719 -5.15625 3.296875 -5.367188 C 3.074219 -5.578125 2.789063 -5.683594 2.441406 -5.683594 C 2.066406 -5.683594 1.769531 -5.570313 1.546875 -5.347656 C 1.320313 -5.125 1.207031 -4.816406 1.207031 -4.421875 L 0.414063 -4.503906 C 0.464844 -5.09375 0.667969 -5.542969 1.027344 -5.855469 C 1.378906 -6.164063 1.855469 -6.320313 2.457031 -6.324219 C 3.058594 -6.320313 3.539063 -6.152344 3.890625 -5.820313 C 4.242188 -5.484375 4.417969 -5.070313 4.421875 -4.578125 C 4.417969 -4.320313 4.367188 -4.074219 4.265625 -3.832031 C 4.164063 -3.589844 3.992188 -3.332031 3.753906 -3.0625 C 3.511719 -2.792969 3.113281 -2.425781 2.5625 -1.957031 C 2.09375 -1.566406 1.796875 -1.300781 1.664063 -1.160156 C 1.53125 -1.019531 1.421875 -0.878906 1.339844 -0.742188 Z M 4.429688 -0.742188 "/>
</symbol>
<symbol overflow="visible" id="glyph0-4">
<path style="stroke:none;" d="M 0.367188 -1.648438 L 1.175781 -1.71875 C 1.234375 -1.320313 1.375 -1.023438 1.59375 -0.824219 C 1.8125 -0.625 2.078125 -0.527344 2.390625 -0.527344 C 2.761719 -0.527344 3.074219 -0.667969 3.335938 -0.949219 C 3.589844 -1.230469 3.71875 -1.601563 3.722656 -2.066406 C 3.71875 -2.503906 3.59375 -2.851563 3.347656 -3.109375 C 3.097656 -3.363281 2.773438 -3.492188 2.375 -3.492188 C 2.125 -3.492188 1.902344 -3.433594 1.703125 -3.320313 C 1.5 -3.207031 1.34375 -3.0625 1.230469 -2.882813 L 0.503906 -2.976563 L 1.113281 -6.214844 L 4.246094 -6.214844 L 4.246094 -5.472656 L 1.730469 -5.472656 L 1.390625 -3.78125 C 1.765625 -4.039063 2.164063 -4.171875 2.582031 -4.175781 C 3.128906 -4.171875 3.59375 -3.980469 3.972656 -3.605469 C 4.351563 -3.222656 4.539063 -2.734375 4.542969 -2.136719 C 4.539063 -1.5625 4.375 -1.070313 4.042969 -0.65625 C 3.636719 -0.148438 3.085938 0.105469 2.390625 0.109375 C 1.816406 0.105469 1.347656 -0.0507813 0.984375 -0.371094 C 0.621094 -0.691406 0.414063 -1.117188 0.367188 -1.648438 Z M 0.367188 -1.648438 "/>
</symbol>
<symbol overflow="visible" id="glyph0-5">
<path style="stroke:none;" d="M 0.417969 -5.472656 L 0.417969 -6.21875 L 4.496094 -6.21875 L 4.496094 -5.617188 C 4.089844 -5.1875 3.691406 -4.621094 3.300781 -3.914063 C 2.902344 -3.203125 2.601563 -2.472656 2.390625 -1.730469 C 2.234375 -1.199219 2.132813 -0.625 2.09375 0 L 1.296875 0 C 1.304688 -0.492188 1.402344 -1.089844 1.589844 -1.792969 C 1.773438 -2.496094 2.042969 -3.171875 2.390625 -3.824219 C 2.738281 -4.476563 3.109375 -5.027344 3.503906 -5.472656 Z M 0.417969 -5.472656 "/>
</symbol>
<symbol overflow="visible" id="glyph0-6">
<path style="stroke:none;" d="M 3.277344 0 L 2.503906 0 L 2.503906 -4.929688 C 2.316406 -4.75 2.074219 -4.574219 1.773438 -4.394531 C 1.46875 -4.214844 1.195313 -4.082031 0.957031 -3.996094 L 0.957031 -4.742188 C 1.386719 -4.941406 1.765625 -5.1875 2.089844 -5.480469 C 2.414063 -5.769531 2.644531 -6.050781 2.78125 -6.324219 L 3.277344 -6.324219 Z M 3.277344 0 "/>
</symbol>
<symbol overflow="visible" id="glyph0-7">
<path style="stroke:none;" d="M 0.394531 -2.023438 L 1.179688 -2.09375 C 1.214844 -1.773438 1.304688 -1.515625 1.441406 -1.316406 C 1.574219 -1.113281 1.785156 -0.949219 2.074219 -0.828125 C 2.359375 -0.699219 2.679688 -0.636719 3.042969 -0.640625 C 3.355469 -0.636719 3.636719 -0.683594 3.882813 -0.78125 C 4.125 -0.875 4.304688 -1.007813 4.425781 -1.171875 C 4.542969 -1.335938 4.605469 -1.515625 4.605469 -1.710938 C 4.605469 -1.90625 4.546875 -2.078125 4.433594 -2.226563 C 4.316406 -2.375 4.128906 -2.5 3.867188 -2.601563 C 3.695313 -2.664063 3.320313 -2.765625 2.746094 -2.90625 C 2.164063 -3.046875 1.757813 -3.175781 1.53125 -3.300781 C 1.226563 -3.453125 1.003906 -3.648438 0.855469 -3.886719 C 0.707031 -4.117188 0.632813 -4.378906 0.636719 -4.671875 C 0.632813 -4.984375 0.722656 -5.28125 0.90625 -5.5625 C 1.082031 -5.835938 1.34375 -6.046875 1.695313 -6.191406 C 2.039063 -6.332031 2.425781 -6.402344 2.851563 -6.40625 C 3.316406 -6.402344 3.730469 -6.328125 4.089844 -6.179688 C 4.445313 -6.027344 4.71875 -5.804688 4.910156 -5.515625 C 5.101563 -5.21875 5.203125 -4.890625 5.21875 -4.523438 L 4.421875 -4.464844 C 4.375 -4.863281 4.230469 -5.164063 3.984375 -5.367188 C 3.734375 -5.570313 3.367188 -5.671875 2.886719 -5.671875 C 2.382813 -5.671875 2.015625 -5.578125 1.785156 -5.394531 C 1.554688 -5.207031 1.441406 -4.984375 1.441406 -4.726563 C 1.441406 -4.496094 1.519531 -4.308594 1.683594 -4.167969 C 1.839844 -4.019531 2.261719 -3.871094 2.941406 -3.71875 C 3.617188 -3.5625 4.082031 -3.429688 4.335938 -3.316406 C 4.703125 -3.144531 4.972656 -2.929688 5.148438 -2.671875 C 5.320313 -2.414063 5.40625 -2.113281 5.410156 -1.777344 C 5.40625 -1.441406 5.3125 -1.128906 5.121094 -0.832031 C 4.929688 -0.535156 4.652344 -0.300781 4.292969 -0.136719 C 3.929688 0.0273438 3.527344 0.105469 3.082031 0.109375 C 2.511719 0.105469 2.03125 0.0234375 1.648438 -0.140625 C 1.257813 -0.304688 0.957031 -0.554688 0.742188 -0.890625 C 0.519531 -1.222656 0.402344 -1.597656 0.394531 -2.023438 Z M 0.394531 -2.023438 "/>
</symbol>
<symbol overflow="visible" id="glyph0-8">
<path style="stroke:none;" d="M 3.558594 -1.671875 L 4.320313 -1.574219 C 4.234375 -1.046875 4.023438 -0.636719 3.679688 -0.339844 C 3.335938 -0.046875 2.914063 0.0976563 2.417969 0.101563 C 1.792969 0.0976563 1.292969 -0.101563 0.914063 -0.507813 C 0.53125 -0.914063 0.339844 -1.5 0.34375 -2.265625 C 0.339844 -2.753906 0.421875 -3.183594 0.585938 -3.558594 C 0.75 -3.925781 0.996094 -4.203125 1.332031 -4.390625 C 1.664063 -4.570313 2.027344 -4.664063 2.421875 -4.667969 C 2.914063 -4.664063 3.320313 -4.539063 3.640625 -4.289063 C 3.953125 -4.039063 4.15625 -3.683594 4.246094 -3.222656 L 3.492188 -3.105469 C 3.421875 -3.410156 3.292969 -3.640625 3.113281 -3.796875 C 2.925781 -3.953125 2.707031 -4.03125 2.453125 -4.03125 C 2.0625 -4.03125 1.746094 -3.890625 1.503906 -3.609375 C 1.257813 -3.328125 1.136719 -2.886719 1.140625 -2.285156 C 1.136719 -1.671875 1.253906 -1.226563 1.492188 -0.949219 C 1.722656 -0.667969 2.027344 -0.527344 2.410156 -0.53125 C 2.710938 -0.527344 2.964844 -0.621094 3.171875 -0.808594 C 3.371094 -0.996094 3.5 -1.28125 3.558594 -1.671875 Z M 3.558594 -1.671875 "/>
</symbol>
<symbol overflow="visible" id="glyph0-9">
<path style="stroke:none;" d="M 0.578125 0 L 0.578125 -6.300781 L 1.351563 -6.300781 L 1.351563 -4.039063 C 1.710938 -4.453125 2.167969 -4.664063 2.71875 -4.667969 C 3.054688 -4.664063 3.347656 -4.597656 3.601563 -4.464844 C 3.847656 -4.332031 4.027344 -4.148438 4.136719 -3.914063 C 4.242188 -3.679688 4.292969 -3.335938 4.296875 -2.890625 L 4.296875 0 L 3.523438 0 L 3.523438 -2.890625 C 3.519531 -3.273438 3.4375 -3.554688 3.269531 -3.734375 C 3.101563 -3.90625 2.863281 -3.996094 2.5625 -4 C 2.328125 -3.996094 2.113281 -3.9375 1.914063 -3.820313 C 1.710938 -3.703125 1.566406 -3.542969 1.480469 -3.339844 C 1.390625 -3.136719 1.347656 -2.855469 1.351563 -2.496094 L 1.351563 0 Z M 0.578125 0 "/>
</symbol>
<symbol overflow="visible" id="glyph0-10">
<path style="stroke:none;" d="M 3.703125 -1.46875 L 4.503906 -1.371094 C 4.375 -0.902344 4.140625 -0.539063 3.800781 -0.285156 C 3.460938 -0.0273438 3.027344 0.0976563 2.496094 0.101563 C 1.828125 0.0976563 1.296875 -0.101563 0.90625 -0.511719 C 0.511719 -0.917969 0.316406 -1.496094 0.320313 -2.242188 C 0.316406 -3.007813 0.515625 -3.605469 0.914063 -4.03125 C 1.308594 -4.453125 1.820313 -4.664063 2.453125 -4.667969 C 3.058594 -4.664063 3.554688 -4.457031 3.945313 -4.042969 C 4.328125 -3.628906 4.523438 -3.042969 4.527344 -2.289063 C 4.523438 -2.242188 4.523438 -2.175781 4.523438 -2.085938 L 1.121094 -2.085938 C 1.144531 -1.582031 1.289063 -1.195313 1.546875 -0.929688 C 1.800781 -0.660156 2.117188 -0.527344 2.5 -0.53125 C 2.78125 -0.527344 3.023438 -0.601563 3.226563 -0.753906 C 3.425781 -0.902344 3.585938 -1.140625 3.703125 -1.46875 Z M 1.164063 -2.71875 L 3.710938 -2.71875 C 3.671875 -3.101563 3.578125 -3.386719 3.421875 -3.582031 C 3.171875 -3.878906 2.851563 -4.03125 2.460938 -4.03125 C 2.105469 -4.03125 1.804688 -3.910156 1.566406 -3.671875 C 1.320313 -3.433594 1.1875 -3.117188 1.164063 -2.71875 Z M 1.164063 -2.71875 "/>
</symbol>
<symbol overflow="visible" id="glyph0-11">
<path style="stroke:none;" d="M 0.578125 0 L 0.578125 -4.5625 L 1.273438 -4.5625 L 1.273438 -3.921875 C 1.414063 -4.140625 1.605469 -4.320313 1.84375 -4.460938 C 2.078125 -4.59375 2.347656 -4.664063 2.65625 -4.667969 C 2.992188 -4.664063 3.269531 -4.59375 3.488281 -4.457031 C 3.699219 -4.3125 3.851563 -4.117188 3.945313 -3.867188 C 4.300781 -4.398438 4.773438 -4.664063 5.355469 -4.667969 C 5.804688 -4.664063 6.148438 -4.539063 6.394531 -4.289063 C 6.636719 -4.039063 6.761719 -3.652344 6.761719 -3.132813 L 6.761719 0 L 5.996094 0 L 5.996094 -2.875 C 5.992188 -3.183594 5.96875 -3.40625 5.917969 -3.542969 C 5.867188 -3.675781 5.773438 -3.785156 5.644531 -3.871094 C 5.511719 -3.953125 5.359375 -3.996094 5.183594 -3.996094 C 4.859375 -3.996094 4.59375 -3.886719 4.382813 -3.675781 C 4.171875 -3.457031 4.066406 -3.117188 4.066406 -2.652344 L 4.066406 0 L 3.292969 0 L 3.292969 -2.964844 C 3.292969 -3.308594 3.226563 -3.566406 3.101563 -3.738281 C 2.972656 -3.910156 2.769531 -3.996094 2.484375 -3.996094 C 2.265625 -3.996094 2.0625 -3.9375 1.878906 -3.824219 C 1.691406 -3.707031 1.558594 -3.539063 1.476563 -3.320313 C 1.390625 -3.097656 1.347656 -2.78125 1.351563 -2.367188 L 1.351563 0 Z M 0.578125 0 "/>
</symbol>
<symbol overflow="visible" id="glyph0-12">
<path style="stroke:none;" d=""/>
</symbol>
<symbol overflow="visible" id="glyph0-13">
<path style="stroke:none;" d="M 2.058594 1.851563 C 1.628906 1.3125 1.269531 0.683594 0.972656 -0.0390625 C 0.675781 -0.757813 0.527344 -1.503906 0.53125 -2.28125 C 0.527344 -2.960938 0.636719 -3.617188 0.863281 -4.242188 C 1.117188 -4.964844 1.515625 -5.683594 2.058594 -6.40625 L 2.613281 -6.40625 C 2.265625 -5.804688 2.035156 -5.378906 1.925781 -5.128906 C 1.75 -4.730469 1.613281 -4.320313 1.511719 -3.894531 C 1.386719 -3.355469 1.324219 -2.816406 1.328125 -2.277344 C 1.324219 -0.898438 1.753906 0.476563 2.613281 1.851563 Z M 2.058594 1.851563 "/>
</symbol>
<symbol overflow="visible" id="glyph0-14">
<path style="stroke:none;" d="M 4.8125 -6.300781 L 5.644531 -6.300781 L 5.644531 -2.660156 C 5.640625 -2.027344 5.570313 -1.523438 5.429688 -1.152344 C 5.285156 -0.777344 5.027344 -0.472656 4.652344 -0.242188 C 4.277344 -0.0078125 3.785156 0.105469 3.183594 0.109375 C 2.589844 0.105469 2.109375 0.0078125 1.734375 -0.195313 C 1.359375 -0.398438 1.089844 -0.695313 0.929688 -1.082031 C 0.769531 -1.464844 0.691406 -1.992188 0.691406 -2.660156 L 0.691406 -6.300781 L 1.527344 -6.300781 L 1.527344 -2.664063 C 1.523438 -2.113281 1.574219 -1.710938 1.679688 -1.453125 C 1.777344 -1.195313 1.953125 -0.996094 2.203125 -0.855469 C 2.449219 -0.714844 2.75 -0.644531 3.109375 -0.644531 C 3.722656 -0.644531 4.160156 -0.78125 4.421875 -1.058594 C 4.679688 -1.335938 4.808594 -1.871094 4.8125 -2.664063 Z M 4.8125 -6.300781 "/>
</symbol>
<symbol overflow="visible" id="glyph0-15">
<path style="stroke:none;" d="M 0.644531 0 L 0.644531 -6.300781 L 1.476563 -6.300781 L 1.476563 -0.742188 L 4.582031 -0.742188 L 4.582031 0 Z M 0.644531 0 "/>
</symbol>
<symbol overflow="visible" id="glyph0-16">
<path style="stroke:none;" d="M 4.648438 -3.703125 L 0.488281 -3.703125 L 0.488281 -4.425781 L 4.648438 -4.425781 Z M 4.648438 -1.792969 L 0.488281 -1.792969 L 0.488281 -2.515625 L 4.648438 -2.515625 Z M 4.648438 -1.792969 "/>
</symbol>
<symbol overflow="visible" id="glyph0-17">
<path style="stroke:none;" d="M 1.085938 1.851563 L 0.53125 1.851563 C 1.386719 0.476563 1.816406 -0.898438 1.816406 -2.277344 C 1.816406 -2.8125 1.753906 -3.347656 1.632813 -3.878906 C 1.535156 -4.308594 1.398438 -4.71875 1.226563 -5.117188 C 1.109375 -5.371094 0.878906 -5.800781 0.53125 -6.40625 L 1.085938 -6.40625 C 1.621094 -5.683594 2.019531 -4.964844 2.28125 -4.242188 C 2.5 -3.617188 2.613281 -2.960938 2.613281 -2.28125 C 2.613281 -1.503906 2.464844 -0.757813 2.167969 -0.0390625 C 1.871094 0.683594 1.507813 1.3125 1.085938 1.851563 Z M 1.085938 1.851563 "/>
</symbol>
<symbol overflow="visible" id="glyph1-0">
<path style="stroke:none;" d="M 1.375 0 L 1.375 -6.875 L 6.875 -6.875 L 6.875 0 Z M 1.546875 -0.171875 L 6.703125 -0.171875 L 6.703125 -6.703125 L 1.546875 -6.703125 Z M 1.546875 -0.171875 "/>
</symbol>
<symbol overflow="visible" id="glyph1-1">
<path style="stroke:none;" d="M 4.628906 -1.835938 L 5.628906 -1.714844 C 5.46875 -1.125 5.175781 -0.671875 4.75 -0.351563 C 4.324219 -0.03125 3.78125 0.128906 3.121094 0.128906 C 2.28125 0.128906 1.617188 -0.125 1.132813 -0.640625 C 0.640625 -1.152344 0.398438 -1.875 0.402344 -2.804688 C 0.398438 -3.761719 0.644531 -4.503906 1.144531 -5.035156 C 1.636719 -5.5625 2.277344 -5.828125 3.066406 -5.832031 C 3.824219 -5.828125 4.449219 -5.570313 4.933594 -5.050781 C 5.417969 -4.53125 5.660156 -3.800781 5.660156 -2.863281 C 5.660156 -2.804688 5.65625 -2.71875 5.65625 -2.605469 L 1.402344 -2.605469 C 1.433594 -1.976563 1.613281 -1.496094 1.933594 -1.164063 C 2.25 -0.828125 2.644531 -0.660156 3.125 -0.664063 C 3.476563 -0.660156 3.78125 -0.753906 4.03125 -0.945313 C 4.28125 -1.128906 4.480469 -1.425781 4.628906 -1.835938 Z M 1.457031 -3.398438 L 4.640625 -3.398438 C 4.597656 -3.878906 4.472656 -4.238281 4.273438 -4.480469 C 3.960938 -4.851563 3.5625 -5.039063 3.078125 -5.039063 C 2.628906 -5.039063 2.257813 -4.890625 1.957031 -4.59375 C 1.652344 -4.296875 1.484375 -3.898438 1.457031 -3.398438 Z M 1.457031 -3.398438 "/>
</symbol>
<symbol overflow="visible" id="glyph1-2">
<path style="stroke:none;" d="M 0.0820313 0 L 2.164063 -2.964844 L 0.234375 -5.703125 L 1.445313 -5.703125 L 2.320313 -4.367188 C 2.484375 -4.109375 2.617188 -3.898438 2.71875 -3.726563 C 2.875 -3.960938 3.019531 -4.167969 3.152344 -4.355469 L 4.113281 -5.703125 L 5.269531 -5.703125 L 3.296875 -3.019531 L 5.417969 0 L 4.234375 0 L 3.0625 -1.773438 L 2.75 -2.25 L 1.25 0 Z M 0.0820313 0 "/>
</symbol>
<symbol overflow="visible" id="glyph1-3">
<path style="stroke:none;" d="M 0.726563 2.1875 L 0.726563 -5.703125 L 1.605469 -5.703125 L 1.605469 -4.960938 C 1.8125 -5.25 2.046875 -5.46875 2.308594 -5.613281 C 2.570313 -5.757813 2.886719 -5.828125 3.261719 -5.832031 C 3.746094 -5.828125 4.175781 -5.703125 4.550781 -5.457031 C 4.921875 -5.203125 5.203125 -4.851563 5.390625 -4.394531 C 5.578125 -3.9375 5.671875 -3.4375 5.675781 -2.894531 C 5.671875 -2.308594 5.566406 -1.78125 5.359375 -1.316406 C 5.148438 -0.847656 4.84375 -0.488281 4.449219 -0.242188 C 4.046875 0.0078125 3.628906 0.128906 3.191406 0.128906 C 2.867188 0.128906 2.578125 0.0625 2.320313 -0.0742188 C 2.0625 -0.210938 1.851563 -0.382813 1.691406 -0.589844 L 1.691406 2.1875 Z M 1.601563 -2.820313 C 1.597656 -2.082031 1.746094 -1.539063 2.046875 -1.191406 C 2.339844 -0.835938 2.699219 -0.660156 3.125 -0.664063 C 3.550781 -0.660156 3.917969 -0.84375 4.226563 -1.210938 C 4.53125 -1.574219 4.6875 -2.136719 4.6875 -2.898438 C 4.6875 -3.625 4.535156 -4.167969 4.238281 -4.53125 C 3.9375 -4.890625 3.582031 -5.074219 3.167969 -5.074219 C 2.753906 -5.074219 2.390625 -4.878906 2.074219 -4.496094 C 1.757813 -4.109375 1.597656 -3.550781 1.601563 -2.820313 Z M 1.601563 -2.820313 "/>
</symbol>
<symbol overflow="visible" id="glyph1-4">
<path style="stroke:none;" d="M 4.445313 -2.089844 L 5.398438 -1.964844 C 5.289063 -1.308594 5.023438 -0.796875 4.597656 -0.425781 C 4.167969 -0.0546875 3.644531 0.128906 3.023438 0.128906 C 2.242188 0.128906 1.613281 -0.125 1.140625 -0.636719 C 0.664063 -1.144531 0.425781 -1.875 0.429688 -2.832031 C 0.425781 -3.441406 0.527344 -3.980469 0.734375 -4.445313 C 0.9375 -4.90625 1.25 -5.253906 1.667969 -5.484375 C 2.082031 -5.714844 2.535156 -5.828125 3.03125 -5.832031 C 3.644531 -5.828125 4.152344 -5.671875 4.546875 -5.363281 C 4.941406 -5.046875 5.191406 -4.601563 5.304688 -4.027344 L 4.367188 -3.882813 C 4.273438 -4.261719 4.117188 -4.550781 3.890625 -4.746094 C 3.664063 -4.941406 3.386719 -5.039063 3.066406 -5.039063 C 2.574219 -5.039063 2.179688 -4.863281 1.878906 -4.515625 C 1.570313 -4.164063 1.417969 -3.613281 1.421875 -2.859375 C 1.417969 -2.089844 1.566406 -1.53125 1.863281 -1.183594 C 2.15625 -0.835938 2.539063 -0.660156 3.011719 -0.664063 C 3.390625 -0.660156 3.707031 -0.777344 3.960938 -1.011719 C 4.214844 -1.242188 4.375 -1.601563 4.445313 -2.089844 Z M 4.445313 -2.089844 "/>
</symbol>
<symbol overflow="visible" id="glyph1-5">
<path style="stroke:none;" d="M 2.835938 -0.863281 L 2.976563 -0.0117188 C 2.703125 0.0429688 2.457031 0.0703125 2.246094 0.0742188 C 1.890625 0.0703125 1.621094 0.0195313 1.429688 -0.0898438 C 1.234375 -0.199219 1.097656 -0.347656 1.019531 -0.527344 C 0.941406 -0.707031 0.902344 -1.085938 0.902344 -1.671875 L 0.902344 -4.953125 L 0.195313 -4.953125 L 0.195313 -5.703125 L 0.902344 -5.703125 L 0.902344 -7.117188 L 1.863281 -7.695313 L 1.863281 -5.703125 L 2.835938 -5.703125 L 2.835938 -4.953125 L 1.863281 -4.953125 L 1.863281 -1.617188 C 1.863281 -1.339844 1.878906 -1.160156 1.914063 -1.085938 C 1.945313 -1.003906 2 -0.941406 2.078125 -0.898438 C 2.152344 -0.847656 2.261719 -0.824219 2.410156 -0.828125 C 2.515625 -0.824219 2.660156 -0.835938 2.835938 -0.863281 Z M 2.835938 -0.863281 "/>
</symbol>
<symbol overflow="visible" id="glyph1-6">
<path style="stroke:none;" d="M 4.425781 0 L 4.425781 -0.71875 C 4.058594 -0.152344 3.527344 0.128906 2.832031 0.128906 C 2.371094 0.128906 1.953125 0.00390625 1.574219 -0.246094 C 1.191406 -0.496094 0.894531 -0.84375 0.6875 -1.296875 C 0.476563 -1.742188 0.375 -2.261719 0.375 -2.847656 C 0.375 -3.414063 0.46875 -3.929688 0.660156 -4.394531 C 0.847656 -4.859375 1.132813 -5.214844 1.515625 -5.460938 C 1.894531 -5.707031 2.320313 -5.828125 2.789063 -5.832031 C 3.132813 -5.828125 3.4375 -5.757813 3.707031 -5.613281 C 3.972656 -5.46875 4.191406 -5.277344 4.359375 -5.046875 L 4.359375 -7.875 L 5.324219 -7.875 L 5.324219 0 Z M 1.371094 -2.847656 C 1.371094 -2.113281 1.523438 -1.566406 1.832031 -1.207031 C 2.136719 -0.84375 2.5 -0.660156 2.921875 -0.664063 C 3.339844 -0.660156 3.699219 -0.835938 3.996094 -1.183594 C 4.292969 -1.527344 4.441406 -2.054688 4.441406 -2.765625 C 4.441406 -3.546875 4.289063 -4.117188 3.988281 -4.484375 C 3.6875 -4.84375 3.316406 -5.027344 2.878906 -5.03125 C 2.445313 -5.027344 2.085938 -4.851563 1.800781 -4.503906 C 1.511719 -4.152344 1.371094 -3.601563 1.371094 -2.847656 Z M 1.371094 -2.847656 "/>
</symbol>
<symbol overflow="visible" id="glyph1-7">
<path style="stroke:none;" d=""/>
</symbol>
<symbol overflow="visible" id="glyph1-8">
<path style="stroke:none;" d="M 0.703125 0 L 0.703125 -7.875 L 1.671875 -7.875 L 1.671875 0 Z M 0.703125 0 "/>
</symbol>
<symbol overflow="visible" id="glyph1-9">
<path style="stroke:none;" d="M 0.367188 -2.851563 C 0.363281 -3.90625 0.65625 -4.6875 1.246094 -5.199219 C 1.734375 -5.617188 2.332031 -5.828125 3.039063 -5.832031 C 3.820313 -5.828125 4.460938 -5.574219 4.960938 -5.0625 C 5.457031 -4.546875 5.707031 -3.835938 5.710938 -2.933594 C 5.707031 -2.195313 5.597656 -1.617188 5.378906 -1.199219 C 5.15625 -0.777344 4.832031 -0.449219 4.414063 -0.21875 C 3.992188 0.015625 3.535156 0.128906 3.039063 0.128906 C 2.238281 0.128906 1.59375 -0.125 1.105469 -0.636719 C 0.609375 -1.148438 0.363281 -1.886719 0.367188 -2.851563 Z M 1.359375 -2.851563 C 1.359375 -2.121094 1.515625 -1.574219 1.835938 -1.210938 C 2.152344 -0.84375 2.554688 -0.660156 3.039063 -0.664063 C 3.515625 -0.660156 3.914063 -0.84375 4.234375 -1.210938 C 4.550781 -1.574219 4.710938 -2.132813 4.714844 -2.882813 C 4.710938 -3.585938 4.550781 -4.117188 4.234375 -4.484375 C 3.910156 -4.84375 3.511719 -5.027344 3.039063 -5.03125 C 2.554688 -5.027344 2.152344 -4.847656 1.835938 -4.488281 C 1.515625 -4.128906 1.359375 -3.582031 1.359375 -2.851563 Z M 1.359375 -2.851563 "/>
</symbol>
<symbol overflow="visible" id="glyph1-10">
<path style="stroke:none;" d="M 4.464844 0 L 4.464844 -0.835938 C 4.019531 -0.191406 3.414063 0.128906 2.652344 0.128906 C 2.3125 0.128906 2 0.0664063 1.710938 -0.0625 C 1.417969 -0.191406 1.199219 -0.355469 1.058594 -0.550781 C 0.914063 -0.746094 0.816406 -0.984375 0.761719 -1.265625 C 0.722656 -1.453125 0.703125 -1.753906 0.703125 -2.171875 L 0.703125 -5.703125 L 1.671875 -5.703125 L 1.671875 -2.539063 C 1.667969 -2.03125 1.6875 -1.691406 1.730469 -1.519531 C 1.785156 -1.261719 1.914063 -1.0625 2.113281 -0.921875 C 2.308594 -0.773438 2.554688 -0.703125 2.847656 -0.703125 C 3.136719 -0.703125 3.40625 -0.777344 3.660156 -0.925781 C 3.914063 -1.074219 4.09375 -1.273438 4.199219 -1.53125 C 4.304688 -1.785156 4.359375 -2.160156 4.359375 -2.648438 L 4.359375 -5.703125 L 5.328125 -5.703125 L 5.328125 0 Z M 4.464844 0 "/>
</symbol>
<symbol overflow="visible" id="glyph1-11">
<path style="stroke:none;" d="M 0.726563 0 L 0.726563 -5.703125 L 1.59375 -5.703125 L 1.59375 -4.894531 C 2.011719 -5.515625 2.617188 -5.828125 3.410156 -5.832031 C 3.753906 -5.828125 4.066406 -5.765625 4.355469 -5.644531 C 4.640625 -5.519531 4.859375 -5.359375 5.003906 -5.160156 C 5.144531 -4.957031 5.242188 -4.71875 5.304688 -4.445313 C 5.335938 -4.265625 5.355469 -3.953125 5.359375 -3.507813 L 5.359375 0 L 4.394531 0 L 4.394531 -3.46875 C 4.394531 -3.863281 4.355469 -4.15625 4.28125 -4.351563 C 4.203125 -4.542969 4.070313 -4.699219 3.878906 -4.820313 C 3.6875 -4.933594 3.460938 -4.992188 3.207031 -4.996094 C 2.792969 -4.992188 2.4375 -4.859375 2.140625 -4.601563 C 1.835938 -4.335938 1.6875 -3.84375 1.691406 -3.117188 L 1.691406 0 Z M 0.726563 0 "/>
</symbol>
<symbol overflow="visible" id="glyph1-12">
<path style="stroke:none;" d="M 0.339844 -1.703125 L 1.292969 -1.851563 C 1.34375 -1.46875 1.492188 -1.171875 1.742188 -0.96875 C 1.984375 -0.761719 2.328125 -0.660156 2.773438 -0.664063 C 3.210938 -0.660156 3.539063 -0.75 3.757813 -0.933594 C 3.96875 -1.113281 4.078125 -1.328125 4.082031 -1.574219 C 4.078125 -1.789063 3.984375 -1.960938 3.796875 -2.089844 C 3.664063 -2.171875 3.332031 -2.28125 2.808594 -2.417969 C 2.097656 -2.59375 1.605469 -2.75 1.332031 -2.882813 C 1.054688 -3.011719 0.847656 -3.191406 0.710938 -3.421875 C 0.566406 -3.652344 0.496094 -3.90625 0.5 -4.1875 C 0.496094 -4.441406 0.554688 -4.675781 0.671875 -4.894531 C 0.785156 -5.105469 0.945313 -5.289063 1.148438 -5.4375 C 1.296875 -5.546875 1.5 -5.636719 1.761719 -5.714844 C 2.019531 -5.789063 2.300781 -5.828125 2.601563 -5.832031 C 3.046875 -5.828125 3.4375 -5.765625 3.777344 -5.636719 C 4.113281 -5.507813 4.363281 -5.332031 4.527344 -5.113281 C 4.6875 -4.890625 4.796875 -4.597656 4.859375 -4.234375 L 3.914063 -4.101563 C 3.871094 -4.394531 3.746094 -4.621094 3.542969 -4.789063 C 3.335938 -4.953125 3.042969 -5.039063 2.667969 -5.039063 C 2.222656 -5.039063 1.90625 -4.964844 1.71875 -4.816406 C 1.523438 -4.667969 1.429688 -4.496094 1.433594 -4.300781 C 1.429688 -4.175781 1.46875 -4.0625 1.550781 -3.964844 C 1.628906 -3.859375 1.753906 -3.773438 1.921875 -3.707031 C 2.015625 -3.667969 2.300781 -3.585938 2.777344 -3.460938 C 3.460938 -3.273438 3.9375 -3.121094 4.207031 -3.007813 C 4.476563 -2.890625 4.6875 -2.722656 4.84375 -2.503906 C 4.996094 -2.277344 5.074219 -2.003906 5.074219 -1.675781 C 5.074219 -1.351563 4.980469 -1.046875 4.792969 -0.765625 C 4.605469 -0.480469 4.332031 -0.261719 3.980469 -0.105469 C 3.621094 0.0507813 3.222656 0.128906 2.777344 0.128906 C 2.035156 0.128906 1.46875 -0.0234375 1.082031 -0.332031 C 0.691406 -0.640625 0.445313 -1.097656 0.339844 -1.703125 Z M 0.339844 -1.703125 "/>
</symbol>
<symbol overflow="visible" id="glyph1-13">
<path style="stroke:none;" d="M 2.574219 2.316406 C 2.035156 1.636719 1.585938 0.851563 1.21875 -0.046875 C 0.847656 -0.949219 0.660156 -1.882813 0.664063 -2.851563 C 0.660156 -3.699219 0.800781 -4.515625 1.078125 -5.300781 C 1.398438 -6.203125 1.894531 -7.105469 2.574219 -8.007813 L 3.265625 -8.007813 C 2.828125 -7.261719 2.542969 -6.730469 2.40625 -6.414063 C 2.183594 -5.917969 2.011719 -5.402344 1.890625 -4.867188 C 1.734375 -4.195313 1.65625 -3.523438 1.660156 -2.847656 C 1.65625 -1.121094 2.191406 0.597656 3.265625 2.316406 Z M 2.574219 2.316406 "/>
</symbol>
<symbol overflow="visible" id="glyph1-14">
<path style="stroke:none;" d="M 1.359375 2.316406 L 0.664063 2.316406 C 1.734375 0.597656 2.273438 -1.121094 2.273438 -2.847656 C 2.273438 -3.519531 2.195313 -4.1875 2.039063 -4.851563 C 1.917969 -5.386719 1.746094 -5.902344 1.53125 -6.398438 C 1.386719 -6.71875 1.097656 -7.253906 0.664063 -8.007813 L 1.359375 -8.007813 C 2.03125 -7.105469 2.527344 -6.203125 2.851563 -5.300781 C 3.125 -4.515625 3.261719 -3.699219 3.265625 -2.851563 C 3.261719 -1.882813 3.078125 -0.949219 2.707031 -0.046875 C 2.335938 0.851563 1.886719 1.636719 1.359375 2.316406 Z M 1.359375 2.316406 "/>
</symbol>
<symbol overflow="visible" id="glyph1-15">
<path style="stroke:none;" d="M 0.492188 -2.53125 L 1.476563 -2.617188 C 1.523438 -2.21875 1.628906 -1.894531 1.800781 -1.644531 C 1.96875 -1.390625 2.234375 -1.1875 2.59375 -1.03125 C 2.949219 -0.875 3.351563 -0.796875 3.804688 -0.800781 C 4.195313 -0.796875 4.546875 -0.855469 4.855469 -0.976563 C 5.15625 -1.09375 5.382813 -1.257813 5.535156 -1.464844 C 5.679688 -1.667969 5.753906 -1.890625 5.757813 -2.136719 C 5.753906 -2.382813 5.683594 -2.597656 5.542969 -2.785156 C 5.398438 -2.964844 5.160156 -3.121094 4.835938 -3.25 C 4.617188 -3.332031 4.148438 -3.460938 3.429688 -3.632813 C 2.703125 -3.804688 2.199219 -3.96875 1.914063 -4.125 C 1.535156 -4.320313 1.253906 -4.5625 1.070313 -4.859375 C 0.886719 -5.148438 0.796875 -5.476563 0.796875 -5.839844 C 0.796875 -6.234375 0.90625 -6.605469 1.132813 -6.953125 C 1.355469 -7.296875 1.6875 -7.558594 2.121094 -7.738281 C 2.554688 -7.914063 3.035156 -8.003906 3.566406 -8.007813 C 4.148438 -8.003906 4.664063 -7.910156 5.109375 -7.726563 C 5.554688 -7.535156 5.898438 -7.257813 6.140625 -6.894531 C 6.378906 -6.527344 6.507813 -6.113281 6.527344 -5.65625 L 5.527344 -5.582031 C 5.46875 -6.078125 5.289063 -6.453125 4.980469 -6.707031 C 4.667969 -6.960938 4.210938 -7.089844 3.609375 -7.089844 C 2.976563 -7.089844 2.515625 -6.972656 2.230469 -6.742188 C 1.941406 -6.511719 1.796875 -6.234375 1.800781 -5.90625 C 1.796875 -5.625 1.898438 -5.390625 2.105469 -5.210938 C 2.300781 -5.023438 2.824219 -4.835938 3.675781 -4.648438 C 4.519531 -4.453125 5.101563 -4.289063 5.417969 -4.148438 C 5.875 -3.933594 6.214844 -3.664063 6.433594 -3.34375 C 6.652344 -3.019531 6.761719 -2.644531 6.761719 -2.222656 C 6.761719 -1.800781 6.640625 -1.40625 6.402344 -1.039063 C 6.160156 -0.664063 5.816406 -0.378906 5.367188 -0.175781 C 4.917969 0.0273438 4.410156 0.128906 3.851563 0.132813 C 3.132813 0.128906 2.535156 0.0273438 2.058594 -0.175781 C 1.574219 -0.382813 1.199219 -0.695313 0.925781 -1.113281 C 0.652344 -1.53125 0.507813 -2.003906 0.492188 -2.53125 Z M 0.492188 -2.53125 "/>
</symbol>
<symbol overflow="visible" id="glyph1-16">
<path style="stroke:none;" d="M 4.445313 -0.703125 C 4.085938 -0.398438 3.742188 -0.183594 3.414063 -0.0585938 C 3.082031 0.0664063 2.726563 0.128906 2.347656 0.128906 C 1.71875 0.128906 1.238281 -0.0234375 0.902344 -0.328125 C 0.566406 -0.632813 0.398438 -1.023438 0.398438 -1.503906 C 0.398438 -1.78125 0.460938 -2.035156 0.585938 -2.269531 C 0.710938 -2.496094 0.875 -2.683594 1.085938 -2.824219 C 1.289063 -2.964844 1.523438 -3.070313 1.78125 -3.140625 C 1.96875 -3.191406 2.253906 -3.238281 2.640625 -3.289063 C 3.417969 -3.375 3.992188 -3.488281 4.367188 -3.621094 C 4.367188 -3.753906 4.371094 -3.835938 4.371094 -3.871094 C 4.371094 -4.265625 4.277344 -4.542969 4.097656 -4.703125 C 3.847656 -4.917969 3.480469 -5.027344 2.996094 -5.03125 C 2.539063 -5.027344 2.203125 -4.949219 1.988281 -4.792969 C 1.769531 -4.632813 1.609375 -4.351563 1.507813 -3.949219 L 0.5625 -4.078125 C 0.648438 -4.480469 0.789063 -4.804688 0.988281 -5.054688 C 1.183594 -5.300781 1.46875 -5.492188 1.84375 -5.628906 C 2.214844 -5.761719 2.644531 -5.828125 3.136719 -5.832031 C 3.621094 -5.828125 4.019531 -5.773438 4.324219 -5.660156 C 4.628906 -5.542969 4.851563 -5.398438 4.996094 -5.226563 C 5.136719 -5.054688 5.238281 -4.835938 5.296875 -4.570313 C 5.328125 -4.40625 5.34375 -4.109375 5.34375 -3.679688 L 5.34375 -2.390625 C 5.34375 -1.492188 5.363281 -0.921875 5.40625 -0.683594 C 5.445313 -0.445313 5.527344 -0.21875 5.648438 0 L 4.640625 0 C 4.539063 -0.199219 4.472656 -0.433594 4.445313 -0.703125 Z M 4.367188 -2.863281 C 4.011719 -2.71875 3.488281 -2.597656 2.789063 -2.496094 C 2.390625 -2.4375 2.105469 -2.371094 1.941406 -2.300781 C 1.773438 -2.226563 1.648438 -2.121094 1.5625 -1.988281 C 1.472656 -1.847656 1.429688 -1.695313 1.429688 -1.53125 C 1.429688 -1.269531 1.527344 -1.054688 1.722656 -0.886719 C 1.917969 -0.710938 2.203125 -0.625 2.578125 -0.628906 C 2.949219 -0.625 3.277344 -0.707031 3.570313 -0.871094 C 3.859375 -1.03125 4.074219 -1.253906 4.210938 -1.542969 C 4.3125 -1.753906 4.363281 -2.078125 4.367188 -2.507813 Z M 4.367188 -2.863281 "/>
</symbol>
<symbol overflow="visible" id="glyph1-17">
<path style="stroke:none;" d="M 0.726563 0 L 0.726563 -5.703125 L 1.589844 -5.703125 L 1.589844 -4.902344 C 1.765625 -5.179688 2.003906 -5.40625 2.304688 -5.578125 C 2.597656 -5.746094 2.9375 -5.828125 3.320313 -5.832031 C 3.738281 -5.828125 4.085938 -5.742188 4.359375 -5.566406 C 4.628906 -5.390625 4.816406 -5.144531 4.929688 -4.835938 C 5.378906 -5.496094 5.96875 -5.828125 6.691406 -5.832031 C 7.253906 -5.828125 7.6875 -5.671875 7.996094 -5.363281 C 8.296875 -5.046875 8.449219 -4.566406 8.453125 -3.914063 L 8.453125 0 L 7.492188 0 L 7.492188 -3.59375 C 7.488281 -3.976563 7.457031 -4.253906 7.398438 -4.425781 C 7.332031 -4.59375 7.21875 -4.734375 7.058594 -4.839844 C 6.890625 -4.941406 6.695313 -4.992188 6.476563 -4.996094 C 6.070313 -4.992188 5.738281 -4.859375 5.476563 -4.59375 C 5.210938 -4.328125 5.078125 -3.898438 5.082031 -3.3125 L 5.082031 0 L 4.113281 0 L 4.113281 -3.707031 C 4.113281 -4.132813 4.03125 -4.453125 3.875 -4.671875 C 3.714844 -4.882813 3.460938 -4.992188 3.105469 -4.996094 C 2.832031 -4.992188 2.578125 -4.921875 2.347656 -4.78125 C 2.117188 -4.636719 1.949219 -4.425781 1.847656 -4.152344 C 1.738281 -3.875 1.6875 -3.476563 1.691406 -2.960938 L 1.691406 0 Z M 0.726563 0 "/>
</symbol>
<symbol overflow="visible" id="glyph1-18">
<path style="stroke:none;" d="M 0.730469 -6.761719 L 0.730469 -7.875 L 1.695313 -7.875 L 1.695313 -6.761719 Z M 0.730469 0 L 0.730469 -5.703125 L 1.695313 -5.703125 L 1.695313 0 Z M 0.730469 0 "/>
</symbol>
<symbol overflow="visible" id="glyph1-19">
<path style="stroke:none;" d="M 0.546875 0.472656 L 1.488281 0.613281 C 1.527344 0.898438 1.636719 1.109375 1.816406 1.246094 C 2.054688 1.421875 2.378906 1.511719 2.796875 1.515625 C 3.242188 1.511719 3.589844 1.421875 3.832031 1.246094 C 4.074219 1.0625 4.238281 0.8125 4.328125 0.492188 C 4.378906 0.296875 4.402344 -0.113281 4.398438 -0.746094 C 3.972656 -0.246094 3.445313 0 2.820313 0 C 2.03125 0 1.425781 -0.28125 1 -0.847656 C 0.566406 -1.410156 0.351563 -2.089844 0.355469 -2.882813 C 0.351563 -3.425781 0.449219 -3.925781 0.648438 -4.390625 C 0.84375 -4.847656 1.128906 -5.203125 1.503906 -5.457031 C 1.875 -5.703125 2.316406 -5.828125 2.824219 -5.832031 C 3.496094 -5.828125 4.050781 -5.558594 4.492188 -5.015625 L 4.492188 -5.703125 L 5.382813 -5.703125 L 5.382813 -0.773438 C 5.378906 0.113281 5.289063 0.742188 5.109375 1.113281 C 4.929688 1.484375 4.640625 1.777344 4.25 1.992188 C 3.855469 2.207031 3.375 2.3125 2.804688 2.316406 C 2.121094 2.3125 1.570313 2.160156 1.152344 1.855469 C 0.734375 1.546875 0.53125 1.085938 0.546875 0.472656 Z M 1.347656 -2.953125 C 1.347656 -2.203125 1.496094 -1.65625 1.792969 -1.316406 C 2.089844 -0.96875 2.460938 -0.796875 2.910156 -0.800781 C 3.351563 -0.796875 3.722656 -0.96875 4.027344 -1.3125 C 4.324219 -1.65625 4.476563 -2.191406 4.480469 -2.921875 C 4.476563 -3.617188 4.320313 -4.144531 4.015625 -4.5 C 3.703125 -4.851563 3.332031 -5.027344 2.894531 -5.03125 C 2.464844 -5.027344 2.097656 -4.851563 1.796875 -4.507813 C 1.496094 -4.15625 1.347656 -3.640625 1.347656 -2.953125 Z M 1.347656 -2.953125 "/>
</symbol>
<symbol overflow="visible" id="glyph1-20">
<path style="stroke:none;" d="M -0.167969 2.1875 L -0.167969 1.488281 L 6.242188 1.488281 L 6.242188 2.1875 Z M -0.167969 2.1875 "/>
</symbol>
<symbol overflow="visible" id="glyph1-21">
<path style="stroke:none;" d="M 0.726563 0 L 0.726563 -7.875 L 1.691406 -7.875 L 1.691406 -5.046875 C 2.140625 -5.566406 2.710938 -5.828125 3.398438 -5.832031 C 3.820313 -5.828125 4.1875 -5.746094 4.5 -5.582031 C 4.8125 -5.414063 5.035156 -5.183594 5.167969 -4.890625 C 5.300781 -4.597656 5.367188 -4.171875 5.371094 -3.613281 L 5.371094 0 L 4.40625 0 L 4.40625 -3.613281 C 4.40625 -4.09375 4.300781 -4.445313 4.089844 -4.667969 C 3.878906 -4.886719 3.582031 -4.996094 3.203125 -5 C 2.914063 -4.996094 2.644531 -4.921875 2.394531 -4.777344 C 2.140625 -4.625 1.960938 -4.425781 1.851563 -4.171875 C 1.742188 -3.917969 1.6875 -3.566406 1.691406 -3.121094 L 1.691406 0 Z M 0.726563 0 "/>
</symbol>
<symbol overflow="visible" id="glyph2-0">
<path style="stroke:none;" d="M 0.554688 0 L 0.554688 -6.875 L 6.054688 -6.875 L 6.054688 0 Z M 0.726563 -0.171875 L 5.882813 -0.171875 L 5.882813 -6.703125 L 0.726563 -6.703125 Z M 0.726563 -0.171875 "/>
</symbol>
<symbol overflow="visible" id="glyph2-1">
<path style="stroke:none;" d=""/>
</symbol>
<symbol overflow="visible" id="glyph2-2">
<path style="stroke:none;" d="M 3.03125 -3.753906 L 1.21875 0 L 0.261719 0 L 2.722656 -5.066406 L 2.632813 -5.539063 C 2.519531 -6.050781 2.375 -6.402344 2.199219 -6.585938 C 2.015625 -6.769531 1.816406 -6.859375 1.59375 -6.863281 C 1.390625 -6.859375 1.214844 -6.785156 1.066406 -6.640625 C 0.917969 -6.492188 0.820313 -6.257813 0.773438 -5.929688 L 0.578125 -5.929688 C 0.589844 -6.484375 0.726563 -6.929688 0.992188 -7.273438 C 1.179688 -7.511719 1.414063 -7.632813 1.6875 -7.636719 C 1.925781 -7.632813 2.128906 -7.539063 2.304688 -7.351563 C 2.558594 -7.058594 2.769531 -6.546875 2.9375 -5.816406 L 3.796875 -2.035156 C 3.925781 -1.464844 4.070313 -1.097656 4.238281 -0.933594 C 4.394531 -0.757813 4.585938 -0.671875 4.808594 -0.675781 C 5.011719 -0.671875 5.183594 -0.742188 5.320313 -0.882813 C 5.453125 -1.019531 5.53125 -1.246094 5.558594 -1.558594 L 5.769531 -1.558594 C 5.769531 -1.464844 5.769531 -1.394531 5.773438 -1.347656 C 5.769531 -0.878906 5.65625 -0.5 5.425781 -0.214844 C 5.246094 0 5.015625 0.105469 4.738281 0.109375 C 4.484375 0.105469 4.257813 0.00390625 4.0625 -0.207031 C 3.863281 -0.417969 3.679688 -0.90625 3.511719 -1.664063 Z M 3.03125 -3.753906 "/>
</symbol>
<symbol overflow="visible" id="glyph3-0">
<path style="stroke:none;" d="M 0 -1.375 L -6.875 -1.375 L -6.875 -6.875 L 0 -6.875 Z M -0.171875 -1.546875 L -0.171875 -6.703125 L -6.703125 -6.703125 L -6.703125 -1.546875 Z M -0.171875 -1.546875 "/>
</symbol>
<symbol overflow="visible" id="glyph3-1">
<path style="stroke:none;" d="M 2.1875 -0.726563 L -5.703125 -0.726563 L -5.703125 -1.605469 L -4.960938 -1.605469 C -5.25 -1.8125 -5.46875 -2.046875 -5.613281 -2.308594 C -5.757813 -2.570313 -5.828125 -2.886719 -5.832031 -3.261719 C -5.828125 -3.746094 -5.703125 -4.175781 -5.457031 -4.550781 C -5.203125 -4.921875 -4.851563 -5.203125 -4.394531 -5.390625 C -3.9375 -5.578125 -3.4375 -5.671875 -2.894531 -5.675781 C -2.308594 -5.671875 -1.78125 -5.566406 -1.316406 -5.359375 C -0.847656 -5.148438 -0.488281 -4.84375 -0.242188 -4.449219 C 0.0078125 -4.046875 0.128906 -3.628906 0.128906 -3.191406 C 0.128906 -2.867188 0.0625 -2.578125 -0.0742188 -2.320313 C -0.207031 -2.0625 -0.378906 -1.851563 -0.589844 -1.691406 L 2.1875 -1.691406 Z M -2.820313 -1.601563 C -2.082031 -1.597656 -1.539063 -1.746094 -1.191406 -2.046875 C -0.835938 -2.339844 -0.660156 -2.699219 -0.664063 -3.125 C -0.660156 -3.550781 -0.84375 -3.917969 -1.210938 -4.226563 C -1.574219 -4.53125 -2.136719 -4.6875 -2.898438 -4.6875 C -3.625 -4.6875 -4.167969 -4.535156 -4.53125 -4.238281 C -4.890625 -3.9375 -5.074219 -3.582031 -5.074219 -3.167969 C -5.074219 -2.753906 -4.878906 -2.390625 -4.496094 -2.074219 C -4.109375 -1.757813 -3.550781 -1.597656 -2.820313 -1.601563 Z M -2.820313 -1.601563 "/>
</symbol>
<symbol overflow="visible" id="glyph4-0">
<path style="stroke:none;" d="M 0 -0.960938 L -4.8125 -0.960938 L -4.8125 -4.8125 L 0 -4.8125 Z M -0.121094 -1.082031 L -0.121094 -4.691406 L -4.691406 -4.691406 L -4.691406 -1.082031 Z M -0.121094 -1.082031 "/>
</symbol>
<symbol overflow="visible" id="glyph4-1">
<path style="stroke:none;" d="M 0 -3.097656 L -0.503906 -3.097656 C -0.109375 -2.84375 0.0859375 -2.472656 0.0898438 -1.980469 C 0.0859375 -1.660156 0.00390625 -1.367188 -0.171875 -1.101563 C -0.34375 -0.835938 -0.589844 -0.628906 -0.90625 -0.480469 C -1.21875 -0.332031 -1.582031 -0.257813 -1.992188 -0.261719 C -2.390625 -0.257813 -2.75 -0.324219 -3.074219 -0.460938 C -3.398438 -0.589844 -3.648438 -0.789063 -3.820313 -1.058594 C -3.992188 -1.320313 -4.078125 -1.617188 -4.082031 -1.953125 C -4.078125 -2.1875 -4.027344 -2.402344 -3.929688 -2.59375 C -3.824219 -2.777344 -3.691406 -2.929688 -3.535156 -3.054688 L -5.511719 -3.054688 L -5.511719 -3.726563 L 0 -3.726563 Z M -1.992188 -0.957031 C -1.480469 -0.953125 -1.097656 -1.0625 -0.84375 -1.28125 C -0.589844 -1.496094 -0.460938 -1.75 -0.464844 -2.046875 C -0.460938 -2.335938 -0.582031 -2.585938 -0.828125 -2.796875 C -1.066406 -3 -1.4375 -3.105469 -1.9375 -3.109375 C -2.480469 -3.105469 -2.882813 -3 -3.140625 -2.792969 C -3.394531 -2.578125 -3.519531 -2.320313 -3.523438 -2.015625 C -3.519531 -1.710938 -3.398438 -1.457031 -3.152344 -1.257813 C -2.90625 -1.054688 -2.519531 -0.953125 -1.992188 -0.957031 Z M -1.992188 -0.957031 "/>
</symbol>
</g>
<clipPath id="clip1">
  <path d="M 40.296875 5.480469 L 519.519531 5.480469 L 519.519531 290.226563 L 40.296875 290.226563 Z M 40.296875 5.480469 "/>
</clipPath>
</defs>
<g id="surface16">
<rect x="0" y="0" width="525" height="324" style="fill:rgb(100%,100%,100%);fill-opacity:1;stroke:none;"/>
<path style="fill:none;stroke-width:1.066978;stroke-linecap:round;stroke-linejoin:round;stroke:rgb(100%,100%,100%);stroke-opacity:1;stroke-miterlimit:10;" d="M 0 324 L 525 324 L 525 0 L 0 0 Z M 0 324 "/>
<g clip-path="url(#clip1)" clip-rule="nonzero">
<path style=" stroke:none;fill-rule:nonzero;fill:rgb(100%,100%,100%);fill-opacity:1;" d="M 40.296875 290.226563 L 519.519531 290.226563 L 519.519531 5.480469 L 40.296875 5.480469 Z M 40.296875 290.226563 "/>
</g>
<path style="fill:none;stroke-width:1.066978;stroke-linecap:butt;stroke-linejoin:round;stroke:rgb(0%,0%,0%);stroke-opacity:1;stroke-miterlimit:10;" d="M 62.078125 277.28125 L 66.4375 264.5 L 70.792969 252.300781 L 75.148438 240.480469 L 79.507813 228.789063 L 83.863281 217.796875 L 88.21875 207.324219 L 92.574219 197.171875 L 96.933594 187.4375 L 101.289063 177.925781 L 105.644531 169.308594 L 110.003906 160.414063 L 114.359375 152.308594 L 118.714844 144.304688 L 123.070313 136.988281 L 127.429688 130.179688 L 131.785156 123.027344 L 136.140625 116.613281 L 140.5 110.59375 L 144.855469 104.871094 L 149.210938 99.488281 L 153.566406 94.273438 L 157.925781 89.234375 L 162.28125 84.609375 L 166.636719 80.351563 L 170.996094 76.113281 L 175.351563 72.375 L 179.707031 68.472656 L 184.0625 65.160156 L 188.421875 62.191406 L 192.777344 59.035156 L 197.132813 56.273438 L 201.492188 53.582031 L 205.847656 51.03125 L 210.203125 48.878906 L 214.558594 46.605469 L 218.917969 44.515625 L 223.273438 42.546875 L 227.628906 40.882813 L 231.988281 38.976563 L 236.34375 37.65625 L 240.699219 36.171875 L 245.054688 34.894531 L 249.414063 33.589844 L 253.769531 32.585938 L 258.125 31.277344 L 262.484375 30.375 L 266.839844 29.460938 L 271.195313 28.65625 L 275.550781 27.828125 L 279.910156 27.140625 L 284.265625 26.457031 L 288.621094 25.792969 L 292.980469 25.203125 L 297.335938 24.695313 L 301.691406 24.179688 L 306.046875 23.640625 L 310.40625 23.3125 L 314.761719 22.875 L 319.117188 22.503906 L 323.472656 22.128906 L 327.832031 21.871094 L 332.1875 21.589844 L 336.542969 21.277344 L 340.902344 21.085938 L 345.257813 20.832031 L 349.613281 20.667969 L 353.96875 20.480469 L 358.328125 20.292969 L 362.683594 20.089844 L 367.039063 19.957031 L 371.398438 19.800781 L 375.753906 19.695313 L 380.109375 19.578125 L 384.464844 19.496094 L 388.824219 19.371094 L 393.179688 19.257813 L 397.535156 19.222656 L 401.894531 19.15625 L 406.25 19.070313 L 410.605469 19.007813 L 414.960938 18.921875 L 419.320313 18.882813 L 423.675781 18.8125 L 428.03125 18.785156 L 432.390625 18.757813 L 436.746094 18.730469 L 441.101563 18.683594 L 445.457031 18.648438 L 449.816406 18.621094 L 454.171875 18.582031 L 458.527344 18.582031 L 462.886719 18.546875 L 467.242188 18.519531 L 471.597656 18.496094 L 475.953125 18.488281 L 480.3125 18.480469 L 484.667969 18.457031 L 489.023438 18.445313 L 493.382813 18.433594 L 497.738281 18.421875 "/>
<path style="fill:none;stroke-width:1.066978;stroke-linecap:butt;stroke-linejoin:round;stroke:rgb(90.196078%,62.352941%,0%);stroke-opacity:1;stroke-miterlimit:10;" d="M 62.078125 277.28125 L 66.4375 276.855469 L 70.792969 275.640625 L 75.148438 273.699219 L 79.507813 271.007813 L 83.863281 267.757813 L 88.21875 263.96875 L 92.574219 259.757813 L 96.933594 254.925781 L 101.289063 249.78125 L 105.644531 244.425781 L 110.003906 238.671875 L 114.359375 232.644531 L 118.714844 226.34375 L 123.070313 219.972656 L 127.429688 213.472656 L 131.785156 207.03125 L 136.140625 200.636719 L 140.5 193.78125 L 144.855469 187.035156 L 149.210938 180.292969 L 153.566406 173.859375 L 157.925781 167.738281 L 162.28125 160.871094 L 166.636719 154.792969 L 170.996094 148.488281 L 175.351563 142.667969 L 179.707031 136.539063 L 184.0625 130.988281 L 188.421875 125.378906 L 192.777344 120.003906 L 197.132813 114.785156 L 201.492188 109.765625 L 205.847656 105.019531 L 210.203125 100.332031 L 214.558594 96.132813 L 218.917969 91.597656 L 223.273438 87.402344 L 227.628906 83.539063 L 231.988281 79.765625 L 236.34375 76.195313 L 240.699219 72.925781 L 245.054688 69.511719 L 249.414063 66.445313 L 253.769531 63.621094 L 258.125 60.84375 L 262.484375 58.207031 L 266.839844 55.761719 L 271.195313 53.191406 L 275.550781 51.148438 L 279.910156 48.933594 L 284.265625 47.066406 L 288.621094 45.144531 L 292.980469 43.519531 L 297.335938 41.707031 L 301.691406 40.273438 L 306.046875 38.824219 L 310.40625 37.382813 L 314.761719 36.132813 L 319.117188 34.75 L 323.472656 33.808594 L 327.832031 32.695313 L 332.1875 31.714844 L 336.542969 30.761719 L 340.902344 29.902344 L 345.257813 29.089844 L 349.613281 28.417969 L 353.96875 27.636719 L 358.328125 26.839844 L 362.683594 26.367188 L 367.039063 25.703125 L 371.398438 25.269531 L 375.753906 24.722656 L 380.109375 24.289063 L 384.464844 23.773438 L 388.824219 23.441406 L 393.179688 23.085938 L 397.535156 22.671875 L 401.894531 22.378906 L 406.25 22.050781 L 410.605469 21.773438 L 414.960938 21.554688 L 419.320313 21.265625 L 423.675781 21.042969 L 428.03125 20.8125 L 432.390625 20.621094 L 436.746094 20.429688 L 445.457031 20.164063 L 449.816406 19.964844 L 454.171875 19.890625 L 458.527344 19.796875 L 462.886719 19.636719 L 467.242188 19.558594 L 471.597656 19.421875 L 475.953125 19.332031 L 480.3125 19.304688 L 484.667969 19.195313 L 489.023438 19.128906 L 493.382813 19.074219 L 497.738281 18.992188 "/>
<path style="fill:none;stroke-width:1.066978;stroke-linecap:butt;stroke-linejoin:round;stroke:rgb(0%,0%,0%);stroke-opacity:1;stroke-miterlimit:10;" d="M 40.296875 290.226563 L 40.296875 5.480469 "/>
<g style="fill:rgb(30.196078%,30.196078%,30.196078%);fill-opacity:1;">
  <use xlink:href="#glyph0-1" x="18.238281" y="280.433594"/>
  <use xlink:href="#glyph0-2" x="23.132422" y="280.433594"/>
  <use xlink:href="#glyph0-1" x="25.577344" y="280.433594"/>
  <use xlink:href="#glyph0-1" x="30.471484" y="280.433594"/>
</g>
<g style="fill:rgb(30.196078%,30.196078%,30.196078%);fill-opacity:1;">
  <use xlink:href="#glyph0-1" x="18.238281" y="215.6875"/>
  <use xlink:href="#glyph0-2" x="23.132422" y="215.6875"/>
  <use xlink:href="#glyph0-3" x="25.577344" y="215.6875"/>
  <use xlink:href="#glyph0-4" x="30.471484" y="215.6875"/>
</g>
<g style="fill:rgb(30.196078%,30.196078%,30.196078%);fill-opacity:1;">
  <use xlink:href="#glyph0-1" x="18.238281" y="150.945313"/>
  <use xlink:href="#glyph0-2" x="23.132422" y="150.945313"/>
  <use xlink:href="#glyph0-4" x="25.577344" y="150.945313"/>
  <use xlink:href="#glyph0-1" x="30.471484" y="150.945313"/>
</g>
<g style="fill:rgb(30.196078%,30.196078%,30.196078%);fill-opacity:1;">
  <use xlink:href="#glyph0-1" x="18.238281" y="86.199219"/>
  <use xlink:href="#glyph0-2" x="23.132422" y="86.199219"/>
  <use xlink:href="#glyph0-5" x="25.577344" y="86.199219"/>
  <use xlink:href="#glyph0-4" x="30.471484" y="86.199219"/>
</g>
<g style="fill:rgb(30.196078%,30.196078%,30.196078%);fill-opacity:1;">
  <use xlink:href="#glyph0-6" x="18.238281" y="21.457031"/>
  <use xlink:href="#glyph0-2" x="23.132422" y="21.457031"/>
  <use xlink:href="#glyph0-1" x="25.577344" y="21.457031"/>
  <use xlink:href="#glyph0-1" x="30.471484" y="21.457031"/>
</g>
<path style="fill:none;stroke-width:1.066978;stroke-linecap:butt;stroke-linejoin:round;stroke:rgb(20%,20%,20%);stroke-opacity:1;stroke-miterlimit:10;" d="M 37.558594 277.28125 L 40.296875 277.28125 "/>
<path style="fill:none;stroke-width:1.066978;stroke-linecap:butt;stroke-linejoin:round;stroke:rgb(20%,20%,20%);stroke-opacity:1;stroke-miterlimit:10;" d="M 37.558594 212.539063 L 40.296875 212.539063 "/>
<path style="fill:none;stroke-width:1.066978;stroke-linecap:butt;stroke-linejoin:round;stroke:rgb(20%,20%,20%);stroke-opacity:1;stroke-miterlimit:10;" d="M 37.558594 147.792969 L 40.296875 147.792969 "/>
<path style="fill:none;stroke-width:1.066978;stroke-linecap:butt;stroke-linejoin:round;stroke:rgb(20%,20%,20%);stroke-opacity:1;stroke-miterlimit:10;" d="M 37.558594 83.050781 L 40.296875 83.050781 "/>
<path style="fill:none;stroke-width:1.066978;stroke-linecap:butt;stroke-linejoin:round;stroke:rgb(20%,20%,20%);stroke-opacity:1;stroke-miterlimit:10;" d="M 37.558594 18.304688 L 40.296875 18.304688 "/>
<path style="fill:none;stroke-width:1.066978;stroke-linecap:butt;stroke-linejoin:round;stroke:rgb(0%,0%,0%);stroke-opacity:1;stroke-miterlimit:10;" d="M 40.296875 290.226563 L 519.519531 290.226563 "/>
<path style="fill:none;stroke-width:1.066978;stroke-linecap:butt;stroke-linejoin:round;stroke:rgb(20%,20%,20%);stroke-opacity:1;stroke-miterlimit:10;" d="M 62.078125 292.964844 L 62.078125 290.226563 "/>
<path style="fill:none;stroke-width:1.066978;stroke-linecap:butt;stroke-linejoin:round;stroke:rgb(20%,20%,20%);stroke-opacity:1;stroke-miterlimit:10;" d="M 170.996094 292.964844 L 170.996094 290.226563 "/>
<path style="fill:none;stroke-width:1.066978;stroke-linecap:butt;stroke-linejoin:round;stroke:rgb(20%,20%,20%);stroke-opacity:1;stroke-miterlimit:10;" d="M 279.910156 292.964844 L 279.910156 290.226563 "/>
<path style="fill:none;stroke-width:1.066978;stroke-linecap:butt;stroke-linejoin:round;stroke:rgb(20%,20%,20%);stroke-opacity:1;stroke-miterlimit:10;" d="M 388.824219 292.964844 L 388.824219 290.226563 "/>
<path style="fill:none;stroke-width:1.066978;stroke-linecap:butt;stroke-linejoin:round;stroke:rgb(20%,20%,20%);stroke-opacity:1;stroke-miterlimit:10;" d="M 497.738281 292.964844 L 497.738281 290.226563 "/>
<g style="fill:rgb(30.196078%,30.196078%,30.196078%);fill-opacity:1;">
  <use xlink:href="#glyph0-1" x="55.960938" y="301.457031"/>
  <use xlink:href="#glyph0-2" x="60.855078" y="301.457031"/>
  <use xlink:href="#glyph0-1" x="63.3" y="301.457031"/>
</g>
<g style="fill:rgb(30.196078%,30.196078%,30.196078%);fill-opacity:1;">
  <use xlink:href="#glyph0-3" x="164.878906" y="301.457031"/>
  <use xlink:href="#glyph0-2" x="169.773047" y="301.457031"/>
  <use xlink:href="#glyph0-4" x="172.217969" y="301.457031"/>
</g>
<g style="fill:rgb(30.196078%,30.196078%,30.196078%);fill-opacity:1;">
  <use xlink:href="#glyph0-4" x="273.792969" y="301.457031"/>
  <use xlink:href="#glyph0-2" x="278.687109" y="301.457031"/>
  <use xlink:href="#glyph0-1" x="281.132031" y="301.457031"/>
</g>
<g style="fill:rgb(30.196078%,30.196078%,30.196078%);fill-opacity:1;">
  <use xlink:href="#glyph0-5" x="382.707031" y="301.457031"/>
  <use xlink:href="#glyph0-2" x="387.601172" y="301.457031"/>
  <use xlink:href="#glyph0-4" x="390.046094" y="301.457031"/>
</g>
<g style="fill:rgb(30.196078%,30.196078%,30.196078%);fill-opacity:1;">
  <use xlink:href="#glyph0-6" x="489.175781" y="301.457031"/>
  <use xlink:href="#glyph0-1" x="494.069922" y="301.457031"/>
  <use xlink:href="#glyph0-2" x="498.964062" y="301.457031"/>
  <use xlink:href="#glyph0-1" x="501.408984" y="301.457031"/>
</g>
<g style="fill:rgb(0%,0%,0%);fill-opacity:1;">
  <use xlink:href="#glyph1-1" x="217.304688" y="314.207031"/>
  <use xlink:href="#glyph1-2" x="223.422363" y="314.207031"/>
  <use xlink:href="#glyph1-3" x="228.922363" y="314.207031"/>
  <use xlink:href="#glyph1-1" x="235.040039" y="314.207031"/>
  <use xlink:href="#glyph1-4" x="241.157715" y="314.207031"/>
  <use xlink:href="#glyph1-5" x="246.657715" y="314.207031"/>
  <use xlink:href="#glyph1-1" x="249.713867" y="314.207031"/>
  <use xlink:href="#glyph1-6" x="255.831543" y="314.207031"/>
  <use xlink:href="#glyph1-7" x="261.949219" y="314.207031"/>
  <use xlink:href="#glyph1-4" x="265.005371" y="314.207031"/>
  <use xlink:href="#glyph1-1" x="270.505371" y="314.207031"/>
  <use xlink:href="#glyph1-8" x="276.623047" y="314.207031"/>
  <use xlink:href="#glyph1-8" x="279.066895" y="314.207031"/>
  <use xlink:href="#glyph1-7" x="281.510742" y="314.207031"/>
  <use xlink:href="#glyph1-4" x="284.566895" y="314.207031"/>
  <use xlink:href="#glyph1-9" x="290.066895" y="314.207031"/>
  <use xlink:href="#glyph1-10" x="296.18457" y="314.207031"/>
  <use xlink:href="#glyph1-11" x="302.302246" y="314.207031"/>
  <use xlink:href="#glyph1-5" x="308.419922" y="314.207031"/>
  <use xlink:href="#glyph1-12" x="311.476074" y="314.207031"/>
  <use xlink:href="#glyph1-7" x="316.976074" y="314.207031"/>
  <use xlink:href="#glyph1-7" x="320.032227" y="314.207031"/>
  <use xlink:href="#glyph1-13" x="323.088379" y="314.207031"/>
</g>
<g style="fill:rgb(0%,0%,0%);fill-opacity:1;">
  <use xlink:href="#glyph2-1" x="326.75" y="314.207031"/>
</g>
<g style="fill:rgb(0%,0%,0%);fill-opacity:1;">
  <use xlink:href="#glyph2-2" x="329.5" y="314.207031"/>
</g>
<g style="fill:rgb(0%,0%,0%);fill-opacity:1;">
  <use xlink:href="#glyph2-1" x="336.101563" y="314.207031"/>
</g>
<g style="fill:rgb(0%,0%,0%);fill-opacity:1;">
  <use xlink:href="#glyph1-14" x="338.851563" y="314.207031"/>
</g>
<g style="fill:rgb(0%,0%,0%);fill-opacity:1;">
  <use xlink:href="#glyph3-1" x="11.3125" y="153.054688"/>
</g>
<g style="fill:rgb(0%,0%,0%);fill-opacity:1;">
  <use xlink:href="#glyph4-1" x="13.308594" y="146.933594"/>
</g>
<path style=" stroke:none;fill-rule:nonzero;fill:rgb(100%,100%,100%);fill-opacity:1;" d="M 389.582031 107.164063 L 505.691406 107.164063 L 505.691406 46.164063 L 389.582031 46.164063 Z M 389.582031 107.164063 "/>
<g style="fill:rgb(0%,0%,0%);fill-opacity:1;">
  <use xlink:href="#glyph1-15" x="395.0625" y="60.582031"/>
  <use xlink:href="#glyph1-16" x="402.399414" y="60.582031"/>
  <use xlink:href="#glyph1-17" x="408.51709" y="60.582031"/>
  <use xlink:href="#glyph1-3" x="417.680176" y="60.582031"/>
  <use xlink:href="#glyph1-8" x="423.797852" y="60.582031"/>
  <use xlink:href="#glyph1-18" x="426.241699" y="60.582031"/>
  <use xlink:href="#glyph1-11" x="428.685547" y="60.582031"/>
  <use xlink:href="#glyph1-19" x="434.803223" y="60.582031"/>
  <use xlink:href="#glyph1-20" x="440.920898" y="60.582031"/>
  <use xlink:href="#glyph1-12" x="447.038574" y="60.582031"/>
  <use xlink:href="#glyph1-4" x="452.538574" y="60.582031"/>
  <use xlink:href="#glyph1-21" x="458.038574" y="60.582031"/>
  <use xlink:href="#glyph1-1" x="464.15625" y="60.582031"/>
  <use xlink:href="#glyph1-17" x="470.273926" y="60.582031"/>
  <use xlink:href="#glyph1-1" x="479.437012" y="60.582031"/>
</g>
<path style="fill:none;stroke-width:1.066978;stroke-linecap:butt;stroke-linejoin:round;stroke:rgb(0%,0%,0%);stroke-opacity:1;stroke-miterlimit:10;" d="M 396.789063 75.765625 L 410.613281 75.765625 "/>
<path style="fill:none;stroke-width:1.066978;stroke-linecap:butt;stroke-linejoin:round;stroke:rgb(90.196078%,62.352941%,0%);stroke-opacity:1;stroke-miterlimit:10;" d="M 396.789063 93.046875 L 410.613281 93.046875 "/>
<g style="fill:rgb(0%,0%,0%);fill-opacity:1;">
  <use xlink:href="#glyph0-7" x="417.820313" y="78.914063"/>
  <use xlink:href="#glyph0-8" x="423.689844" y="78.914063"/>
  <use xlink:href="#glyph0-9" x="428.089844" y="78.914063"/>
  <use xlink:href="#glyph0-10" x="432.983984" y="78.914063"/>
  <use xlink:href="#glyph0-11" x="437.878125" y="78.914063"/>
  <use xlink:href="#glyph0-10" x="445.208594" y="78.914063"/>
  <use xlink:href="#glyph0-12" x="450.102734" y="78.914063"/>
  <use xlink:href="#glyph0-13" x="452.547656" y="78.914063"/>
  <use xlink:href="#glyph0-14" x="455.478125" y="78.914063"/>
  <use xlink:href="#glyph0-7" x="461.833203" y="78.914063"/>
  <use xlink:href="#glyph0-15" x="467.702734" y="78.914063"/>
  <use xlink:href="#glyph0-16" x="472.596875" y="78.914063"/>
  <use xlink:href="#glyph0-6" x="477.735937" y="78.914063"/>
  <use xlink:href="#glyph0-1" x="482.630078" y="78.914063"/>
  <use xlink:href="#glyph0-1" x="487.524219" y="78.914063"/>
  <use xlink:href="#glyph0-1" x="492.418359" y="78.914063"/>
  <use xlink:href="#glyph0-17" x="497.3125" y="78.914063"/>
</g>
<g style="fill:rgb(0%,0%,0%);fill-opacity:1;">
  <use xlink:href="#glyph0-7" x="417.820313" y="96.195313"/>
  <use xlink:href="#glyph0-8" x="423.689844" y="96.195313"/>
  <use xlink:href="#glyph0-9" x="428.089844" y="96.195313"/>
  <use xlink:href="#glyph0-10" x="432.983984" y="96.195313"/>
  <use xlink:href="#glyph0-11" x="437.878125" y="96.195313"/>
  <use xlink:href="#glyph0-10" x="445.208594" y="96.195313"/>
  <use xlink:href="#glyph0-12" x="450.102734" y="96.195313"/>
  <use xlink:href="#glyph0-13" x="452.547656" y="96.195313"/>
  <use xlink:href="#glyph0-14" x="455.478125" y="96.195313"/>
  <use xlink:href="#glyph0-7" x="461.833203" y="96.195313"/>
  <use xlink:href="#glyph0-15" x="467.702734" y="96.195313"/>
  <use xlink:href="#glyph0-16" x="472.596875" y="96.195313"/>
  <use xlink:href="#glyph0-3" x="477.735937" y="96.195313"/>
  <use xlink:href="#glyph0-1" x="482.630078" y="96.195313"/>
  <use xlink:href="#glyph0-1" x="487.524219" y="96.195313"/>
  <use xlink:href="#glyph0-1" x="492.418359" y="96.195313"/>
  <use xlink:href="#glyph0-17" x="497.3125" y="96.195313"/>
</g>
</g>
</svg>
